<?xml version="1.0" encoding="UTF-8" standalone="no"?>
<!-- Created with Inkscape (http://www.inkscape.org/) -->

<svg
   xmlns:dc="http://purl.org/dc/elements/1.1/"
   xmlns:cc="http://creativecommons.org/ns#"
   xmlns:rdf="http://www.w3.org/1999/02/22-rdf-syntax-ns#"
   xmlns:svg="http://www.w3.org/2000/svg"
   xmlns="http://www.w3.org/2000/svg"
   xmlns:sodipodi="http://sodipodi.sourceforge.net/DTD/sodipodi-0.dtd"
   xmlns:inkscape="http://www.inkscape.org/namespaces/inkscape"
   width="210mm"
   height="297mm"
   viewBox="0 0 210 297"
   version="1.1"
   id="svg1981"
   inkscape:version="0.92.3 (2405546, 2018-03-11)"
   sodipodi:docname="logo-50-opacity.svg">
  <defs
     id="defs1975" />
  <sodipodi:namedview
     id="base"
     pagecolor="#ffffff"
     bordercolor="#666666"
     borderopacity="1.0"
     inkscape:pageopacity="0.0"
     inkscape:pageshadow="2"
     inkscape:zoom="0.49497475"
     inkscape:cx="-101.17368"
     inkscape:cy="526.6491"
     inkscape:document-units="mm"
     inkscape:current-layer="layer1"
     showgrid="false"
     inkscape:window-width="1920"
     inkscape:window-height="1017"
     inkscape:window-x="-8"
     inkscape:window-y="-8"
     inkscape:window-maximized="1" />
  <metadata
     id="metadata1978">
    <rdf:RDF>
      <cc:Work
         rdf:about="">
        <dc:format>image/svg+xml</dc:format>
        <dc:type
           rdf:resource="http://purl.org/dc/dcmitype/StillImage" />
        <dc:title />
      </cc:Work>
    </rdf:RDF>
  </metadata>
  <g
     inkscape:label="Capa 1"
     inkscape:groupmode="layer"
     id="layer1">
    <g
       id="g858"
       transform="translate(-2.027441,10.024714)"
       style="opacity:0.5">
      <path
         inkscape:export-ydpi="66.82"
         inkscape:export-xdpi="66.82"
         transform="matrix(-0.00665053,-0.07797579,0.07797579,-0.00665053,219.30917,51.672961)"
         inkscape:transform-center-y="421.35151"
         inkscape:transform-center-x="364.89597"
         d="m -1403.0477,-1559.619 -839.6343,-71.6178 481.84,-691.3357 z"
         inkscape:randomized="0"
         inkscape:rounded="0"
         inkscape:flatsided="true"
         sodipodi:arg2="1.6558869"
         sodipodi:arg1="0.60868931"
         sodipodi:r2="243.26167"
         sodipodi:r1="486.52332"
         sodipodi:cy="-1837.8094"
         sodipodi:cx="-1802.1906"
         sodipodi:sides="3"
         id="path917-9"
         style="opacity:1;fill:#bf3449;fill-opacity:1;stroke:none;stroke-width:1;stroke-miterlimit:4;stroke-dasharray:none;stroke-opacity:1"
         sodipodi:type="star" />
      <path
         inkscape:export-ydpi="66.82"
         inkscape:export-xdpi="66.82"
         transform="matrix(0.00665053,-0.07797579,-0.07797579,-0.00665053,-62.366678,18.698865)"
         inkscape:transform-center-y="421.35151"
         inkscape:transform-center-x="-364.89597"
         d="m -1403.0477,-1559.619 -839.6343,-71.6178 481.84,-691.3357 z"
         inkscape:randomized="0"
         inkscape:rounded="0"
         inkscape:flatsided="true"
         sodipodi:arg2="1.6558869"
         sodipodi:arg1="0.60868931"
         sodipodi:r2="243.26167"
         sodipodi:r1="486.52332"
         sodipodi:cy="-1837.8094"
         sodipodi:cx="-1802.1906"
         sodipodi:sides="3"
         id="path917-6-1"
         style="opacity:1;fill:#583971;fill-opacity:1;stroke:none;stroke-width:1;stroke-miterlimit:4;stroke-dasharray:none;stroke-opacity:1"
         sodipodi:type="star" />
      <path
         inkscape:export-ydpi="66.82"
         inkscape:export-xdpi="66.82"
         transform="matrix(-0.00665053,-0.07797579,0.07797579,-0.00665053,219.30917,-14.275253)"
         inkscape:transform-center-y="421.35151"
         inkscape:transform-center-x="364.89597"
         d="m -1403.0477,-1559.619 -839.6343,-71.6178 481.84,-691.3357 z"
         inkscape:randomized="0"
         inkscape:rounded="0"
         inkscape:flatsided="true"
         sodipodi:arg2="1.6558869"
         sodipodi:arg1="0.60868931"
         sodipodi:r2="243.26167"
         sodipodi:r1="486.52332"
         sodipodi:cy="-1837.8094"
         sodipodi:cx="-1802.1906"
         sodipodi:sides="3"
         id="path917-6-4-33"
         style="opacity:1;fill:#f27736;fill-opacity:1;stroke:none;stroke-width:1;stroke-miterlimit:4;stroke-dasharray:none;stroke-opacity:1"
         sodipodi:type="star" />
      <path
         inkscape:export-ydpi="66.82"
         inkscape:export-xdpi="66.82"
         transform="matrix(0.00665053,-0.07797579,-0.07797579,-0.00665053,-5.2538618,-14.275253)"
         inkscape:transform-center-y="421.35151"
         inkscape:transform-center-x="-364.89601"
         d="m -1403.0477,-1559.619 -839.6343,-71.6178 481.84,-691.3357 z"
         inkscape:randomized="0"
         inkscape:rounded="0"
         inkscape:flatsided="true"
         sodipodi:arg2="1.6558869"
         sodipodi:arg1="0.60868931"
         sodipodi:r2="243.26167"
         sodipodi:r1="486.52332"
         sodipodi:cy="-1837.8094"
         sodipodi:cx="-1802.1906"
         sodipodi:sides="3"
         id="path917-6-4-3-6"
         style="opacity:1;fill:#f79733;fill-opacity:1;stroke:none;stroke-width:1;stroke-miterlimit:4;stroke-dasharray:none;stroke-opacity:1"
         sodipodi:type="star" />
      <path
         inkscape:export-ydpi="66.82"
         inkscape:export-xdpi="66.82"
         transform="matrix(-0.00665053,-0.07797579,0.07797579,-0.00665053,276.42156,-47.248589)"
         inkscape:transform-center-y="421.35151"
         inkscape:transform-center-x="364.89601"
         d="m -1403.0477,-1559.619 -839.6343,-71.6178 481.84,-691.3357 z"
         inkscape:randomized="0"
         inkscape:rounded="0"
         inkscape:flatsided="true"
         sodipodi:arg2="1.6558869"
         sodipodi:arg1="0.60868931"
         sodipodi:r2="243.26167"
         sodipodi:r1="486.52332"
         sodipodi:cy="-1837.8094"
         sodipodi:cx="-1802.1906"
         sodipodi:sides="3"
         id="path917-6-4-3-4-7"
         style="opacity:1;fill:#fdbb40;fill-opacity:1;stroke:none;stroke-width:1;stroke-miterlimit:4;stroke-dasharray:none;stroke-opacity:1"
         sodipodi:type="star" />
      <path
         inkscape:export-ydpi="66.82"
         inkscape:export-xdpi="66.82"
         transform="matrix(0.00665053,-0.07797579,-0.07797579,-0.00665053,-5.2538618,-80.221925)"
         inkscape:transform-center-y="421.35151"
         inkscape:transform-center-x="-364.896"
         d="m -1403.0477,-1559.619 -839.6343,-71.6178 481.84,-691.3357 z"
         inkscape:randomized="0"
         inkscape:rounded="0"
         inkscape:flatsided="true"
         sodipodi:arg2="1.6558869"
         sodipodi:arg1="0.60868931"
         sodipodi:r2="243.26167"
         sodipodi:r1="486.52332"
         sodipodi:cy="-1837.8094"
         sodipodi:cx="-1802.1906"
         sodipodi:sides="3"
         id="path917-6-4-3-4-5-7"
         style="opacity:1;fill:#f27736;fill-opacity:1;stroke:none;stroke-width:1;stroke-miterlimit:4;stroke-dasharray:none;stroke-opacity:1"
         sodipodi:type="star" />
    </g>
  </g>
</svg>
