<?xml version="1.0" encoding="UTF-8" standalone="no"?>
<!-- Created with Inkscape (http://www.inkscape.org/) -->

<svg
   xmlns:dc="http://purl.org/dc/elements/1.1/"
   xmlns:cc="http://creativecommons.org/ns#"
   xmlns:rdf="http://www.w3.org/1999/02/22-rdf-syntax-ns#"
   xmlns:svg="http://www.w3.org/2000/svg"
   xmlns="http://www.w3.org/2000/svg"
   xmlns:sodipodi="http://sodipodi.sourceforge.net/DTD/sodipodi-0.dtd"
   xmlns:inkscape="http://www.inkscape.org/namespaces/inkscape"
   width="300mm"
   height="60mm"
   viewBox="0 0 300 60"
   version="1.1"
   id="svg6303"
   inkscape:version="0.92.3 (2405546, 2018-03-11)"
   sodipodi:docname="logo empresa-txt.svg">
  <defs
     id="defs6297" />
  <sodipodi:namedview
     id="base"
     pagecolor="#ffffff"
     bordercolor="#666666"
     borderopacity="1.0"
     inkscape:pageopacity="0.0"
     inkscape:pageshadow="2"
     inkscape:zoom="0.7"
     inkscape:cx="313.85318"
     inkscape:cy="418.12889"
     inkscape:document-units="mm"
     inkscape:current-layer="layer1"
     showgrid="false"
     height="150mm"
     inkscape:window-width="1920"
     inkscape:window-height="1017"
     inkscape:window-x="-8"
     inkscape:window-y="-8"
     inkscape:window-maximized="1" />
  <metadata
     id="metadata6300">
    <rdf:RDF>
      <cc:Work
         rdf:about="">
        <dc:format>image/svg+xml</dc:format>
        <dc:type
           rdf:resource="http://purl.org/dc/dcmitype/StillImage" />
        <dc:title></dc:title>
      </cc:Work>
    </rdf:RDF>
  </metadata>
  <g
     inkscape:label="Capa 1"
     inkscape:groupmode="layer"
     id="layer1"
     transform="translate(0,-237)">
    <g
       transform="matrix(0.50238366,0,0,0.50238366,-93.825286,64.960472)"
       id="Layer1008">
      <path
         inkscape:connector-curvature="0"
         id="path5394"
         style="fill:#1b1918;fill-rule:evenodd"
         d="m 257.2186,388.3 c 0,3.4942 -0.493,6.6226 -1.4789,9.415 -0.9666,2.7924 -2.4063,5.1726 -4.3191,7.1257 -1.8933,1.9687 -4.2401,3.4792 -7.001,4.5167 -2.7607,1.0531 -5.936,1.5718 -9.5054,1.5718 -1.6566,0 -3.195,-0.1221 -4.595,-0.3815 -1.4003,-0.2441 -2.7808,-0.6562 -4.1218,-1.2206 -1.3411,-0.58 -2.6819,-1.2818 -4.0428,-2.1515 -1.3408,-0.87 -2.761,-1.9074 -4.2596,-3.1283 v 4.9439 c 0,0.229 -0.0788,0.4425 -0.2367,0.6256 -0.1579,0.1831 -0.3946,0.3206 -0.7495,0.4275 -0.3552,0.1065 -0.7889,0.1831 -1.3014,0.244 -0.5326,0.061 -1.203,0.0916 -2.0117,0.0916 -0.7694,0 -1.4398,-0.0306 -1.9721,-0.0916 -0.5525,-0.0609 -0.9862,-0.1375 -1.3411,-0.244 -0.3353,-0.1069 -0.572,-0.2444 -0.6902,-0.4275 -0.1182,-0.1831 -0.1775,-0.3813 -0.1775,-0.6256 v -59.7084 c 0,-0.2444 0.0593,-0.4578 0.1973,-0.6256 0.1381,-0.1832 0.3946,-0.3359 0.7691,-0.4578 0.3549,-0.1069 0.8478,-0.1985 1.4791,-0.2594 0.6111,-0.0612 1.3805,-0.0916 2.3272,-0.0916 0.9661,0 1.7552,0.0304 2.3661,0.0916 0.6313,0.0609 1.1047,0.1525 1.4596,0.2594 0.3551,0.1219 0.5918,0.2746 0.7492,0.4578 0.1579,0.1678 0.2367,0.3812 0.2367,0.6256 v 24.048 c 1.5383,-1.2206 3.0174,-2.2581 4.477,-3.0974 1.4391,-0.8241 2.8395,-1.5106 4.2202,-2.0297 1.4003,-0.5187 2.7808,-0.9002 4.161,-1.1443 1.3805,-0.2288 2.8397,-0.3509 4.3781,-0.3509 3.7667,0 6.9812,0.5799 9.6633,1.7396 2.6623,1.1596 4.8317,2.7312 6.5078,4.6692 1.6764,1.9531 2.899,4.2421 3.6683,6.8667 0.769,2.6243 1.1438,5.4017 1.1438,8.316 z m -9.9394,0.8546 c 0,-2.0599 -0.1973,-4.0589 -0.6112,-5.997 -0.3946,-1.953 -1.1046,-3.662 -2.1101,-5.1573 -1.006,-1.4956 -2.3272,-2.7009 -3.9838,-3.6012 -1.6566,-0.9155 -3.7273,-1.3733 -6.1926,-1.3733 -1.2225,0 -2.4454,0.1372 -3.6484,0.3965 -1.1829,0.2747 -2.4058,0.7325 -3.6284,1.3581 -1.2427,0.6256 -2.5245,1.4343 -3.8457,2.4262 -1.3411,0.9768 -2.761,2.228 -4.2599,3.7233 v 16.0526 c 2.6231,2.4871 5.1275,4.3792 7.514,5.6764 2.386,1.2968 4.8906,1.953 7.4744,1.953 2.3859,0 4.4173,-0.4425 6.1132,-1.3427 1.696,-0.9003 3.0767,-2.0906 4.1414,-3.5706 1.065,-1.4649 1.8343,-3.1283 2.3074,-4.9592 0.493,-1.8465 0.7297,-3.708 0.7297,-5.5848 z m 26.6173,19.8366 c 0,0.2443 -0.0788,0.4425 -0.2367,0.6106 -0.1576,0.1525 -0.3943,0.305 -0.7492,0.4271 -0.3549,0.1069 -0.8283,0.1985 -1.4595,0.2594 -0.6112,0.061 -1.4001,0.0916 -2.3664,0.0916 -0.9465,0 -1.7158,-0.0306 -2.327,-0.0916 -0.6312,-0.0609 -1.1242,-0.1525 -1.4794,-0.2594 -0.3744,-0.1221 -0.6307,-0.2746 -0.769,-0.4271 -0.1381,-0.1681 -0.197,-0.3663 -0.197,-0.6106 v -40.2531 c 0,-0.2138 0.0589,-0.4122 0.197,-0.58 0.1383,-0.1831 0.3946,-0.3356 0.769,-0.4578 0.3552,-0.1069 0.8482,-0.1984 1.4794,-0.2594 0.6112,-0.0609 1.3805,-0.0915 2.327,-0.0915 0.9663,0 1.7552,0.0306 2.3664,0.0915 0.6312,0.061 1.1046,0.1525 1.4595,0.2594 0.3549,0.1222 0.5916,0.2747 0.7492,0.4578 0.1579,0.1678 0.2367,0.3662 0.2367,0.58 z m 1.065,-53.8186 c 0,1.7396 -0.4337,2.9146 -1.2818,3.5402 -0.8479,0.6256 -2.4058,0.9459 -4.6934,0.9459 -2.2484,0 -3.7868,-0.305 -4.6151,-0.9153 -0.8282,-0.6106 -1.2421,-1.7702 -1.2421,-3.4792 0,-1.7394 0.4337,-2.9143 1.2818,-3.5399 0.8482,-0.6259 2.4058,-0.9463 4.6936,-0.9463 2.2479,0 3.7863,0.3053 4.6146,0.9156 0.8285,0.6103 1.2424,1.77 1.2424,3.479 z m 57.5203,33.2189 c 0,3.2808 -0.5519,6.302 -1.6764,9.0641 -1.1041,2.7465 -2.7805,5.127 -4.9892,7.1257 -2.2088,1.999 -4.9893,3.5555 -8.3027,4.6693 -3.3327,1.114 -7.198,1.6786 -11.5761,1.6786 -4.2792,0 -8.0065,-0.4884 -11.1819,-1.4802 -3.1751,-0.9766 -5.8175,-2.4109 -7.9279,-4.2877 -2.1101,-1.8768 -3.6876,-4.1658 -4.7327,-6.836 -1.0455,-2.6856 -1.5582,-5.7223 -1.5582,-9.125 0,-3.2806 0.5524,-6.302 1.637,-9.0485 1.1043,-2.7621 2.7606,-5.1424 4.9694,-7.1413 2.2087,-1.999 4.97,-3.5402 8.2828,-4.654 3.3134,-1.0987 7.1788,-1.648 11.5963,-1.648 4.2794,0 8.0067,0.4884 11.1818,1.4802 3.1748,0.9766 5.8178,2.4109 7.9277,4.2877 2.1101,1.8768 3.7077,4.1505 4.7724,6.836 1.0451,2.6856 1.5777,5.707 1.5777,9.0791 z m -9.9394,0.4731 c 0,-2.1821 -0.2565,-4.242 -0.7889,-6.1798 -0.5127,-1.938 -1.3801,-3.6317 -2.5835,-5.0967 -1.1831,-1.4649 -2.8201,-2.6246 -4.871,-3.4636 -2.031,-0.8547 -4.5947,-1.2819 -7.6516,-1.2819 -2.8202,0 -5.2458,0.3816 -7.2774,1.1597 -2.031,0.7781 -3.6875,1.8768 -5.0091,3.2958 -1.3209,1.4193 -2.2875,3.0977 -2.9182,5.0355 -0.6511,1.9381 -0.9664,4.0589 -0.9664,6.3479 0,2.2125 0.2563,4.2877 0.7886,6.2257 0.5128,1.9378 1.3805,3.6315 2.6034,5.0811 1.2226,1.4344 2.8593,2.5943 4.8909,3.4334 2.0508,0.8546 4.6145,1.2818 7.6714,1.2818 2.7805,0 5.1865,-0.3815 7.2374,-1.1597 2.0511,-0.7781 3.7273,-1.8615 5.0485,-3.2655 1.3215,-1.4037 2.2876,-3.0824 2.899,-5.0201 0.6114,-1.9381 0.9269,-4.0743 0.9269,-6.3936 z m 49.4544,9.1401 c 0,2.0602 -0.493,3.8911 -1.4788,5.5085 -0.9862,1.6022 -2.3667,2.9602 -4.1809,4.059 -1.8147,1.0987 -3.9639,1.938 -6.4686,2.5024 -2.5044,0.5646 -5.2654,0.8546 -8.2633,0.8546 -1.8536,0 -3.6088,-0.1068 -5.2849,-0.3356 -1.6764,-0.2137 -3.1754,-0.4884 -4.5162,-0.8393 -1.3212,-0.3357 -2.4454,-0.6866 -3.3721,-1.0528 -0.9275,-0.3663 -1.5979,-0.7022 -2.0117,-0.9919 -0.4337,-0.2899 -0.7495,-0.7171 -0.9269,-1.2512 -0.1973,-0.5343 -0.296,-1.2665 -0.296,-2.1974 0,-0.5647 0.0394,-1.0378 0.1182,-1.419 0.0791,-0.3969 0.1778,-0.7022 0.2764,-0.9462 0.1182,-0.2441 0.2957,-0.4119 0.4929,-0.5188 0.2169,-0.1068 0.4536,-0.1525 0.7297,-0.1525 0.4141,0 1.0451,0.1982 1.8734,0.6103 0.8283,0.3966 1.8539,0.8394 3.0569,1.3122 1.203,0.4731 2.6424,0.9156 4.299,1.3124 1.6569,0.4119 3.5501,0.6103 5.6993,0.6103 1.6172,0 3.0768,-0.1374 4.3782,-0.4118 1.3215,-0.2597 2.4454,-0.6563 3.4117,-1.1903 0.9664,-0.519 1.6963,-1.1903 2.2286,-1.999 0.5128,-0.8087 0.7691,-1.77 0.7691,-2.884 0,-1.129 -0.3745,-2.0905 -1.1242,-2.8533 -0.7495,-0.7784 -1.7354,-1.465 -2.9583,-2.06 -1.2421,-0.5952 -2.6226,-1.1293 -4.161,-1.5871 -1.5383,-0.4578 -3.1158,-0.9459 -4.7528,-1.4496 -1.6169,-0.5188 -3.2142,-1.0834 -4.7724,-1.7243 -1.5577,-0.6407 -2.9384,-1.4191 -4.1808,-2.3497 -1.2226,-0.9309 -2.2088,-2.0296 -2.9583,-3.3114 -0.7492,-1.2815 -1.1239,-2.8074 -1.1239,-4.608 0,-1.5718 0.3946,-3.0824 1.1832,-4.532 0.7888,-1.4497 1.972,-2.7162 3.5498,-3.7996 1.5976,-1.0834 3.5697,-1.9684 5.9357,-2.6246 2.3667,-0.6562 5.1276,-0.9765 8.3027,-0.9765 1.3805,0 2.761,0.0915 4.1613,0.2746 1.3805,0.1832 2.6229,0.4272 3.7471,0.7019 1.1239,0.2747 2.0704,0.58 2.8596,0.9003 0.7889,0.3356 1.3997,0.6103 1.7943,0.8699 0.4144,0.2441 0.6704,0.4576 0.8087,0.6257 0.1381,0.1831 0.2367,0.3812 0.296,0.6102 0.0589,0.2135 0.1182,0.4882 0.1774,0.8088 0.0593,0.3356 0.0785,0.7324 0.0785,1.2053 0,0.5037 -0.0192,0.9462 -0.0785,1.3124 -0.0592,0.3662 -0.1579,0.6713 -0.2956,0.9003 -0.1384,0.2441 -0.2962,0.4119 -0.4933,0.5187 -0.197,0.1069 -0.4144,0.1525 -0.6312,0.1525 -0.3549,0 -0.8479,-0.1678 -1.5185,-0.5034 -0.6506,-0.3203 -1.4987,-0.6715 -2.5439,-1.0528 -1.0454,-0.3815 -2.2677,-0.7325 -3.668,-1.0531 -1.4003,-0.3356 -3.0172,-0.5034 -4.8319,-0.5034 -1.6169,0 -3.0563,0.1372 -4.2792,0.4272 -1.2424,0.2747 -2.2484,0.6715 -3.0373,1.1903 -0.7886,0.5187 -1.4001,1.129 -1.7944,1.8464 -0.4144,0.7019 -0.6114,1.48 -0.6114,2.304 0,1.1597 0.3943,2.1362 1.1636,2.9297 0.7691,0.7937 1.7552,1.4802 2.9974,2.0752 1.2228,0.5953 2.6427,1.1293 4.2205,1.6174 1.5775,0.4731 3.1748,0.9616 4.8118,1.465 1.6367,0.5187 3.2539,1.0834 4.8515,1.709 1.5973,0.6256 3.0172,1.3887 4.2398,2.2737 1.2427,0.9003 2.2286,1.9683 2.9781,3.2196 0.7491,1.2512 1.1239,2.7467 1.1239,4.4708 z m 31.4093,12.1005 -6.9217,14.8164 c -0.2367,0.4731 -0.8285,0.8393 -1.775,1.0987 -0.9269,0.2594 -2.3664,0.3816 -4.2993,0.3816 -1.0055,0 -1.8142,-0.0307 -2.4256,-0.1069 -0.6115,-0.0763 -1.0848,-0.2135 -1.4199,-0.3816 -0.3155,-0.1831 -0.4932,-0.4271 -0.5323,-0.7171 -0.0397,-0.305 0.0589,-0.656 0.2758,-1.0834 l 7.1787,-14.0077 c -0.3549,-0.1222 -0.6902,-0.3203 -0.9862,-0.58 -0.3155,-0.2746 -0.5323,-0.549 -0.631,-0.8543 L 373.3121,370.218 c -0.3155,-0.6256 -0.4536,-1.129 -0.4536,-1.4799 0,-0.3663 0.1381,-0.6409 0.4536,-0.8547 0.3155,-0.2137 0.8084,-0.3509 1.4986,-0.4271 0.6903,-0.0763 1.6172,-0.1069 2.7808,-0.1069 1.1441,0 2.0512,0.0153 2.7216,0.0609 0.6505,0.046 1.1636,0.1375 1.5582,0.2594 0.3744,0.1069 0.6505,0.29 0.828,0.5037 0.1774,0.2288 0.3549,0.5341 0.5524,0.9156 l 14.8496,32.288 h 0.1778 l 14.3175,-32.4561 c 0.2364,-0.5797 0.5125,-0.9459 0.8478,-1.0984 0.3158,-0.1678 0.8085,-0.29 1.4596,-0.3662 0.6704,-0.0763 1.6169,-0.1069 2.8394,-0.1069 1.0849,0 1.9721,0.0306 2.6623,0.1069 0.6903,0.0762 1.2031,0.2134 1.5186,0.4271 0.3353,0.2138 0.4932,0.4884 0.4932,0.8547 0,0.3509 -0.1185,0.8087 -0.3354,1.3428 z m 67.3809,-1.114 c 0,0.2443 -0.0788,0.4425 -0.2367,0.6106 -0.1573,0.1525 -0.394,0.305 -0.7492,0.4271 -0.3549,0.1069 -0.8282,0.1985 -1.4595,0.2594 -0.6109,0.061 -1.3802,0.0916 -2.3071,0.0916 -0.9859,0 -1.7751,-0.0306 -2.3862,-0.0916 -0.6313,-0.0609 -1.1044,-0.1525 -1.4596,-0.2594 -0.3549,-0.1221 -0.5916,-0.2746 -0.7492,-0.4271 -0.1579,-0.1681 -0.2367,-0.3663 -0.2367,-0.6106 V 385.416 c 0,-2.2887 -0.2367,-4.1505 -0.6902,-5.5389 -0.4536,-1.404 -1.1243,-2.6093 -2.0115,-3.6317 -0.8872,-1.0072 -2.0117,-1.7853 -3.4118,-2.3194 -1.4003,-0.534 -3.0175,-0.8087 -4.8515,-0.8087 -2.3862,0 -4.7525,0.6562 -7.1192,1.9684 -2.3862,1.3122 -4.871,3.2349 -7.4744,5.7679 v 28.1376 c 0,0.2443 -0.0788,0.4425 -0.2367,0.6106 -0.1576,0.1525 -0.394,0.305 -0.7492,0.4271 -0.3549,0.1069 -0.8283,0.1985 -1.4595,0.2594 -0.6112,0.061 -1.4001,0.0916 -2.3664,0.0916 -0.9465,0 -1.7158,-0.0306 -2.327,-0.0916 -0.6312,-0.0609 -1.1242,-0.1525 -1.4794,-0.2594 -0.3744,-0.1221 -0.6307,-0.2746 -0.7687,-0.4271 -0.1383,-0.1681 -0.1973,-0.3663 -0.1973,-0.6106 v -40.2531 c 0,-0.2444 0.059,-0.4428 0.1774,-0.6106 0.1183,-0.1525 0.3351,-0.305 0.6903,-0.4425 0.3549,-0.1372 0.7886,-0.2287 1.3411,-0.2747 0.5323,-0.0456 1.2622,-0.0609 2.1495,-0.0609 0.8481,0 1.5579,0.0153 2.1101,0.0609 0.572,0.046 1.0057,0.1375 1.3215,0.2747 0.2956,0.1375 0.5323,0.29 0.6704,0.4425 0.1182,0.1678 0.197,0.3662 0.197,0.6106 v 5.3251 c 2.9188,-2.548 5.8178,-4.4098 8.7364,-5.5848 2.899,-1.1749 5.8178,-1.7699 8.776,-1.7699 3.4512,0 6.3698,0.4578 8.7364,1.3581 2.3664,0.9155 4.2795,2.1361 5.7388,3.6467 1.4595,1.5262 2.5046,3.3115 3.1356,5.3561 0.631,2.0446 0.9465,4.5014 0.9465,7.3548 z m 36.0638,-2.9906 c 0,0.8697 -0.0785,1.5563 -0.2364,2.06 -0.1383,0.5034 -0.375,0.8849 -0.6902,1.1137 -0.2963,0.2443 -0.7694,0.4731 -1.3805,0.6715 -0.6114,0.2138 -1.3215,0.3816 -2.1101,0.5188 -0.7889,0.1374 -1.6172,0.244 -2.505,0.3356 -0.8872,0.0915 -1.7552,0.1375 -2.6425,0.1375 -2.7017,0 -5.0091,-0.2747 -6.9219,-0.8241 -1.9131,-0.5493 -3.4906,-1.3887 -4.7333,-2.5024 -1.2226,-1.114 -2.1101,-2.533 -2.6821,-4.242 -0.5519,-1.709 -0.8283,-3.7233 -0.8283,-6.0426 v -23.4684 h -7.3162 c -0.572,0 -1.0454,-0.2443 -1.4003,-0.7171 -0.3354,-0.4731 -0.5125,-1.2512 -0.5125,-2.3346 0,-0.5647 0.0391,-1.0378 0.138,-1.4194 0.0987,-0.3965 0.2367,-0.7171 0.3745,-0.9765 0.1579,-0.244 0.3747,-0.4272 0.6114,-0.534 0.2565,-0.1069 0.5323,-0.1525 0.8481,-0.1525 h 7.257 v -9.5522 c 0,-0.2138 0.0595,-0.4119 0.1976,-0.58 0.138,-0.1831 0.3943,-0.3356 0.769,-0.4728 0.3549,-0.1375 0.8481,-0.2291 1.4789,-0.29 0.6114,-0.0609 1.3807,-0.0916 2.3272,-0.0916 0.9663,0 1.7552,0.0307 2.3666,0.0916 0.631,0.0609 1.1044,0.1525 1.4596,0.29 0.3546,0.1372 0.5913,0.2897 0.7492,0.4728 0.1579,0.1681 0.2364,0.3662 0.2364,0.58 v 9.5522 h 13.2525 c 0.3155,0 0.5721,0.0456 0.8088,0.1525 0.2168,0.1068 0.4337,0.29 0.5916,0.534 0.1777,0.2594 0.2959,0.58 0.3747,0.9765 0.0788,0.3816 0.1182,0.8547 0.1182,1.4194 0,1.0834 -0.1774,1.8615 -0.5128,2.3346 -0.3549,0.4728 -0.8084,0.7171 -1.3805,0.7171 H 491.705 v 22.3849 c 0,2.7618 0.5324,4.8524 1.5778,6.2564 1.0451,1.419 2.9384,2.1209 5.6599,2.1209 0.8677,0 1.6569,-0.061 2.3471,-0.1984 0.6902,-0.1372 1.3011,-0.2747 1.8337,-0.4272 0.5324,-0.1525 0.9859,-0.29 1.3805,-0.4272 0.3747,-0.1375 0.7299,-0.1984 1.0256,-0.1984 0.1973,0 0.3747,0.0306 0.5519,0.1068 0.1579,0.0763 0.2962,0.2135 0.3946,0.4272 0.0986,0.2137 0.1777,0.4884 0.2565,0.8547 0.0788,0.3509 0.1182,0.8087 0.1182,1.3427 z m 48.3695,-18.8909 c 0,1.1599 -0.3744,1.9837 -1.1239,2.4874 -0.7498,0.4881 -1.6172,0.7325 -2.5838,0.7325 H 517.356 c 0,2.243 0.2957,4.257 0.8677,6.0426 0.5717,1.8006 1.5383,3.3415 2.899,4.6233 1.341,1.2818 3.0963,2.2584 5.2458,2.9449 2.1696,0.6868 4.8121,1.0378 7.9279,1.0378 2.465,0 4.6738,-0.1525 6.5869,-0.4731 1.9326,-0.305 3.609,-0.6562 5.0094,-1.0375 1.4,-0.3816 2.5636,-0.7325 3.4707,-1.0378 0.9071,-0.3203 1.5775,-0.4728 2.0509,-0.4728 0.2761,0 0.5128,0.0456 0.7296,0.1525 0.1973,0.1069 0.3747,0.2594 0.4734,0.4731 0.1185,0.1982 0.2168,0.4881 0.2758,0.8544 0.0595,0.3815 0.0791,0.824 0.0791,1.3581 0,0.3815 -0.0196,0.7171 -0.0593,1.0071 -0.0391,0.2747 -0.0788,0.5341 -0.138,0.7475 -0.059,0.229 -0.1576,0.4275 -0.2957,0.6106 -0.138,0.1678 -0.2959,0.3356 -0.513,0.5034 -0.2169,0.1678 -0.8476,0.4272 -1.8734,0.7934 -1.0452,0.3816 -2.386,0.7325 -4.0428,1.0987 -1.6566,0.351 -3.5694,0.6716 -5.7385,0.9462 -2.1696,0.2897 -4.4767,0.4272 -6.942,0.4272 -4.2795,0 -8.0068,-0.4578 -11.221,-1.3887 -3.2147,-0.9156 -5.9167,-2.2887 -8.1056,-4.1045 -2.1889,-1.8312 -3.8458,-4.1049 -4.9499,-6.8514 -1.1242,-2.7314 -1.6764,-5.9204 -1.6764,-9.5675 0,-3.4483 0.5717,-6.5613 1.7354,-9.3231 1.1437,-2.7468 2.8202,-5.0967 4.9895,-7.0192 2.1694,-1.9227 4.8118,-3.3877 7.8885,-4.4251 3.0762,-1.0225 6.5277,-1.5412 10.3337,-1.5412 4.0825,0 7.5532,0.5034 10.4126,1.5259 2.8797,1.0071 5.2262,2.3805 7.0798,4.0895 1.8343,1.709 3.1949,3.723 4.0629,6.0426 0.8674,2.304 1.3013,4.7761 1.3013,7.4004 z m -9.5842,-2.1818 c 0.1182,-3.8758 -0.9861,-6.9276 -3.3332,-9.1403 -2.3463,-2.2125 -5.7977,-3.3112 -10.3927,-3.3112 -2.3666,0 -4.4373,0.3356 -6.2121,1.0225 -1.7751,0.6865 -3.2539,1.6021 -4.4572,2.7465 -1.2028,1.1293 -2.1297,2.4567 -2.7805,3.952 -0.6509,1.5106 -1.0256,3.0824 -1.1044,4.7305 z m 54.3252,17.8682 c 0,0.5037 -0.0196,0.9462 -0.059,1.3124 -0.0397,0.3813 -0.0986,0.6866 -0.1973,0.9459 -0.0989,0.2594 -0.2171,0.4731 -0.3549,0.6716 -0.138,0.1981 -0.434,0.4881 -0.9269,0.8543 -0.4734,0.3816 -1.3017,0.8394 -2.4455,1.404 -1.1633,0.5491 -2.465,1.0528 -3.9047,1.48 -1.4593,0.4425 -3.0175,0.7934 -4.7132,1.0528 -1.6962,0.2746 -3.4514,0.4121 -5.2656,0.4121 -3.7471,0 -7.06,-0.4731 -9.9397,-1.4343 -2.899,-0.9462 -5.3246,-2.3346 -7.257,-4.1658 -1.9522,-1.8312 -3.4316,-4.0895 -4.4572,-6.7445 -1.0252,-2.6702 -1.5383,-5.7373 -1.5383,-9.2316 0,-3.9523 0.6313,-7.355 1.8737,-10.2084 1.262,-2.8383 2.9781,-5.1729 5.1471,-6.9885 2.1889,-1.8159 4.7529,-3.1587 7.6913,-4.0439 2.9579,-0.8697 6.1529,-1.3122 9.5842,-1.3122 1.6566,0 3.2539,0.1222 4.8121,0.3663 1.5778,0.2287 2.9973,0.5493 4.3189,0.9309 1.3016,0.3965 2.4851,0.839 3.4905,1.358 1.0256,0.5035 1.7751,0.946 2.2286,1.2969 0.4734,0.3662 0.7889,0.6562 0.9661,0.8546 0.1579,0.2135 0.3158,0.4578 0.4343,0.7475 0.0983,0.2747 0.1771,0.5953 0.2168,0.9615 0.0394,0.351 0.059,0.8088 0.059,1.3428 0,1.1597 -0.1775,1.9684 -0.5125,2.4415 -0.3552,0.4578 -0.7694,0.6866 -1.2819,0.6866 -0.572,0 -1.2427,-0.2441 -1.9919,-0.7478 -0.7494,-0.4882 -1.6959,-1.0375 -2.8596,-1.6328 -1.1633,-0.595 -2.5636,-1.1443 -4.2003,-1.6325 -1.637,-0.5037 -3.57,-0.7477 -5.7983,-0.7477 -4.595,0 -8.1252,1.358 -10.5704,4.0892 -2.4454,2.7162 -3.668,6.6682 -3.668,11.8412 0,2.5787 0.3155,4.8523 0.9467,6.8054 0.6506,1.9381 1.5775,3.5708 2.8197,4.883 1.2228,1.2971 2.7413,2.2736 4.536,2.9145 1.7946,0.641 3.8454,0.9613 6.1531,0.9613 2.2088,0 4.1412,-0.2747 5.798,-0.8087 1.6566,-0.5341 3.0762,-1.1291 4.299,-1.7853 1.2226,-0.6409 2.2482,-1.2209 3.0765,-1.7396 0.8283,-0.5341 1.4595,-0.7934 1.9326,-0.7934 0.2566,0 0.4933,0.0609 0.6903,0.1831 0.1973,0.1221 0.3552,0.3203 0.4932,0.595 0.1378,0.2899 0.2367,0.6409 0.2957,1.0834 0.0592,0.4274 0.0788,0.9462 0.0788,1.5412 z m 50.1049,6.1951 c 0,0.2443 -0.0785,0.4425 -0.2364,0.6106 -0.1576,0.1525 -0.3943,0.305 -0.7492,0.4271 -0.3552,0.1069 -0.8286,0.1985 -1.4596,0.2594 -0.6111,0.061 -1.3805,0.0916 -2.3074,0.0916 -0.9859,0 -1.775,-0.0306 -2.3862,-0.0916 -0.631,-0.0609 -1.1044,-0.1525 -1.4596,-0.2594 -0.3549,-0.1221 -0.5915,-0.2746 -0.7492,-0.4271 -0.1578,-0.1681 -0.2364,-0.3663 -0.2364,-0.6106 V 385.416 c 0,-2.2887 -0.2367,-4.1505 -0.6902,-5.5389 -0.4535,-1.404 -1.1245,-2.6093 -2.0117,-3.6317 -0.8873,-1.0072 -2.0118,-1.7853 -3.4118,-2.3194 -1.4003,-0.534 -3.0175,-0.8087 -4.8512,-0.8087 -2.3865,0 -4.7529,0.6562 -7.1195,1.9684 -2.386,1.3122 -4.8711,3.2349 -7.4744,5.7679 v 28.1376 c 0,0.2443 -0.0788,0.4425 -0.2367,0.6106 -0.1573,0.1525 -0.394,0.305 -0.7492,0.4271 -0.3549,0.1069 -0.8283,0.1985 -1.4596,0.2594 -0.6108,0.061 -1.4,0.0916 -2.3661,0.0916 -0.9467,0 -1.7161,-0.0306 -2.3272,-0.0916 -0.6313,-0.0609 -1.1242,-0.1525 -1.4791,-0.2594 -0.3745,-0.1221 -0.631,-0.2746 -0.7691,-0.4271 -0.138,-0.1681 -0.1973,-0.3663 -0.1973,-0.6106 v -59.7084 c 0,-0.2444 0.0593,-0.4578 0.1973,-0.6256 0.1381,-0.1832 0.3946,-0.3359 0.7691,-0.4578 0.3549,-0.1069 0.8478,-0.1985 1.4791,-0.2594 0.6111,-0.0612 1.3805,-0.0916 2.3272,-0.0916 0.9661,0 1.7553,0.0304 2.3661,0.0916 0.6313,0.0609 1.1047,0.1525 1.4596,0.2594 0.3552,0.1219 0.5919,0.2746 0.7492,0.4578 0.1579,0.1678 0.2367,0.3812 0.2367,0.6256 v 24.048 c 2.7218,-2.2431 5.4825,-3.9062 8.2434,-4.9896 2.7612,-1.0834 5.5417,-1.6327 8.3421,-1.6327 3.471,0 6.37,0.4578 8.7366,1.3581 2.3661,0.9155 4.2792,2.1361 5.7385,3.6467 1.4596,1.5262 2.5047,3.3115 3.1357,5.3561 0.6313,2.0446 0.9465,4.5167 0.9465,7.4007 z" />
      <g
         id="Layer1009">
        <path
           inkscape:connector-curvature="0"
           id="path5396"
           style="fill:#1b1918;fill-rule:evenodd"
           d="m 705.8052,395.7089 c 0,2.3748 -0.5723,4.4949 -1.6993,6.3598 -1.1444,1.8516 -2.7227,3.4347 -4.7342,4.7364 -2.0114,1.2881 -4.3872,2.2674 -7.1096,2.9251 -2.7399,0.6573 -5.6707,0.9793 -8.8265,0.9793 -2.2025,0 -4.2485,-0.1476 -6.1214,-0.4294 -1.8904,-0.2951 -3.5722,-0.6574 -5.0462,-1.0732 -1.474,-0.4161 -2.7051,-0.8589 -3.7111,-1.3017 -0.9885,-0.4561 -1.6994,-0.8317 -2.081,-1.1537 -0.3988,-0.3087 -0.6763,-0.7112 -0.8671,-1.1942 -0.1905,-0.483 -0.2772,-1.1271 -0.2772,-1.9321 0,-0.5771 0.0346,-1.0602 0.104,-1.4358 0.0692,-0.3755 0.1732,-0.6842 0.2948,-0.9124 0.1386,-0.2415 0.3121,-0.4025 0.5202,-0.4964 0.208,-0.0938 0.4334,-0.134 0.7109,-0.134 0.468,0 1.1446,0.2279 2.0115,0.6706 0.8501,0.4428 1.9596,0.9258 3.3296,1.4491 1.3524,0.51 2.9828,1.0063 4.9076,1.4627 1.9074,0.4561 4.1269,0.6843 6.624,0.6843 1.9077,0 3.6416,-0.2013 5.2197,-0.5905 1.578,-0.3892 2.9304,-0.9391 4.0578,-1.6637 1.1446,-0.7112 2.0117,-1.5967 2.6183,-2.6433 0.6072,-1.0465 0.9193,-2.2407 0.9193,-3.5691 0,-1.4357 -0.4164,-2.6699 -1.2659,-3.6898 -0.8499,-1.0196 -1.9596,-1.9185 -3.3469,-2.6969 -1.4046,-0.7648 -2.9826,-1.4757 -4.7511,-2.1197 -1.7864,-0.6444 -3.6074,-1.2884 -5.4624,-1.9591 -1.8556,-0.6709 -3.6765,-1.4088 -5.4281,-2.2274 -1.7688,-0.8051 -3.3466,-1.7575 -4.7338,-2.8579 -1.3876,-1.1002 -2.5144,-2.3882 -3.3645,-3.8775 -0.8671,-1.476 -1.3005,-3.2471 -1.3005,-5.3133 0,-2.1336 0.5031,-4.0255 1.4916,-5.6891 1.0054,-1.6504 2.393,-3.0459 4.1618,-4.1729 1.7858,-1.1271 3.9016,-1.9857 6.3465,-2.5761 2.4627,-0.5905 5.0984,-0.8856 7.9424,-0.8856 1.4564,0 2.9132,0.0938 4.3875,0.2951 1.4737,0.2013 2.861,0.4564 4.1615,0.7917 1.3005,0.322 2.4625,0.6976 3.4855,1.1001 1.0057,0.4028 1.6821,0.7382 1.9942,0.9797 0.3293,0.2548 0.5374,0.4428 0.6414,0.5905 0.1041,0.1474 0.1738,0.3353 0.243,0.5499 0.0691,0.2282 0.1213,0.4966 0.1562,0.8186 0.0345,0.3084 0.0518,0.711 0.0518,1.2209 0,0.4697 -0.0173,0.8855 -0.0691,1.2611 -0.0522,0.3623 -0.1389,0.671 -0.243,0.9258 -0.0867,0.2415 -0.2429,0.4295 -0.4161,0.5502 -0.191,0.1208 -0.3991,0.1744 -0.6415,0.1744 -0.3818,0 -0.9541,-0.1877 -1.7515,-0.55 -0.7977,-0.3758 -1.7688,-0.7783 -2.9305,-1.2478 -1.1446,-0.4563 -2.5146,-0.8722 -4.0926,-1.2478 -1.5608,-0.3892 -3.3293,-0.5771 -5.3062,-0.5771 -1.821,0 -3.4163,0.1879 -4.769,0.5635 -1.3524,0.3892 -2.4797,0.8856 -3.3642,1.5163 -0.8671,0.6307 -1.5258,1.3685 -1.9768,2.2272 -0.4335,0.8722 -0.6591,1.7846 -0.6591,2.7507 0,1.4088 0.4161,2.6297 1.2662,3.6496 0.8496,1.0196 1.9769,1.9185 3.3815,2.7102 1.4218,0.7917 3.0172,1.5029 4.8209,2.1603 1.7858,0.6573 3.6238,1.315 5.4969,1.9857 1.8553,0.6709 3.6936,1.3955 5.4797,2.2005 1.8037,0.7917 3.3987,1.7442 4.8209,2.831 1.4045,1.087 2.5319,2.3615 3.3987,3.8508 0.8671,1.476 1.3005,3.2202 1.3005,5.2464 z" />
        <path
           inkscape:connector-curvature="0"
           id="path5398"
           style="fill:#1b1918;fill-rule:evenodd"
           d="m 769.729,407.5968 c 0.26,0.5769 0.4162,1.033 0.4335,1.3952 0.0175,0.349 -0.1214,0.6174 -0.3816,0.8051 -0.2772,0.1746 -0.7282,0.2953 -1.3524,0.3489 -0.6245,0.0536 -1.4567,0.0805 -2.5143,0.0805 -1.0406,0 -1.8905,-0.0133 -2.5146,-0.0536 -0.6245,-0.0402 -1.0925,-0.1074 -1.4219,-0.2012 -0.3297,-0.0941 -0.555,-0.2149 -0.7112,-0.3759 -0.1559,-0.161 -0.2948,-0.3487 -0.4334,-0.5902 l -5.6359,-12.3842 h -27.3294 l -5.3929,12.2232 c -0.104,0.2415 -0.2253,0.4428 -0.3988,0.6171 -0.1735,0.1744 -0.4161,0.3087 -0.7458,0.4295 -0.3121,0.1207 -0.7804,0.2012 -1.3697,0.2548 -0.5896,0.0536 -1.3527,0.0805 -2.3063,0.0805 -0.9887,0 -1.7864,-0.0269 -2.4106,-0.0938 -0.6241,-0.0672 -1.0751,-0.1879 -1.3178,-0.3759 -0.2602,-0.1876 -0.3818,-0.4561 -0.3642,-0.805 0.0173,-0.3623 0.1562,-0.8184 0.4334,-1.3952 l 22.0402,-47.27 c 0.1389,-0.2951 0.3297,-0.5366 0.538,-0.7109 0.2251,-0.188 0.5375,-0.3357 0.9706,-0.4295 0.4164,-0.1074 0.9541,-0.1879 1.6305,-0.2282 0.6585,-0.0402 1.4913,-0.0536 2.5143,-0.0536 1.0752,0 1.9766,0.0134 2.6878,0.0536 0.7112,0.0403 1.2833,0.1208 1.7167,0.2282 0.451,0.0938 0.7804,0.2548 1.0233,0.4428 0.2426,0.2012 0.4334,0.4427 0.5547,0.7245 z m -28.3005,-41.7285 h -0.0522 l -11.3235,25.359 h 22.8555 z" />
        <path
           inkscape:connector-curvature="0"
           id="path5400"
           style="fill:#1b1918;fill-rule:evenodd"
           d="m 708.5497,405.1151 c 1.6852,0 3.0512,1.3663 3.0512,3.0512 0,1.6852 -1.366,3.0512 -3.0512,3.0512 -1.6852,0 -3.0512,-1.366 -3.0512,-3.0512 0,-1.6849 1.366,-3.0512 3.0512,-3.0512 z" />
        <path
           inkscape:connector-curvature="0"
           id="path5402"
           style="fill:#1b1918;fill-rule:evenodd"
           d="m 775.3088,405.1151 c 1.6852,0 3.0512,1.3663 3.0512,3.0512 0,1.6852 -1.366,3.0512 -3.0512,3.0512 -1.6852,0 -3.0513,-1.366 -3.0513,-3.0512 0,-1.6849 1.3661,-3.0512 3.0513,-3.0512 z" />
      </g>
    </g>
    <g
       transform="matrix(0.50238366,0,0,0.50238366,-93.825286,64.960472)"
       id="Layer1013">
      <path
         inkscape:connector-curvature="0"
         id="path5485"
         style="fill:#1b1918;fill-rule:evenodd"
         d="m 224.2236,436.4493 c 0.0745,0.17 0.119,0.3044 0.1239,0.411 0.005,0.1029 -0.0343,0.182 -0.1089,0.2372 -0.0796,0.0514 -0.2086,0.0871 -0.3872,0.1027 -0.1786,0.0158 -0.417,0.0238 -0.7197,0.0238 -0.2979,0 -0.5411,-0.004 -0.7197,-0.0159 -0.1789,-0.0119 -0.3127,-0.0315 -0.4071,-0.0592 -0.0944,-0.0278 -0.1587,-0.0633 -0.2035,-0.1106 -0.0445,-0.0476 -0.0845,-0.1029 -0.1239,-0.174 l -1.6132,-3.6482 h -7.8225 l -1.5437,3.6008 c -0.0295,0.0712 -0.0644,0.1304 -0.1143,0.1817 -0.0496,0.0513 -0.119,0.091 -0.2131,0.1264 -0.0893,0.0358 -0.2237,0.0596 -0.3923,0.0752 -0.1687,0.0158 -0.387,0.0238 -0.6599,0.0238 -0.2832,0 -0.5114,-0.008 -0.69,-0.0278 -0.1786,-0.0196 -0.3078,-0.0553 -0.3773,-0.1106 -0.0745,-0.0552 -0.1094,-0.1343 -0.1043,-0.2372 0.005,-0.1066 0.0448,-0.241 0.1242,-0.411 l 6.3085,-13.9247 c 0.0399,-0.087 0.0944,-0.1581 0.1536,-0.2095 0.0649,-0.0555 0.1542,-0.0989 0.2781,-0.1267 0.1193,-0.0314 0.273,-0.0552 0.4666,-0.0671 0.1887,-0.0117 0.4269,-0.0156 0.72,-0.0156 0.3075,0 0.5655,0.004 0.769,0.0156 0.2038,0.0119 0.3674,0.0357 0.4912,0.0671 0.1293,0.0278 0.2237,0.0752 0.2931,0.1307 0.0695,0.0593 0.1242,0.1304 0.1588,0.2135 z m -8.1003,-12.2925 h -0.015 l -3.2409,7.4704 h 6.5415 z m 28.5627,12.7075 c 0,0.0632 -0.0198,0.1145 -0.0595,0.1581 -0.0397,0.0394 -0.0992,0.0791 -0.1885,0.1106 -0.0845,0.0278 -0.2086,0.0516 -0.3625,0.0672 -0.1537,0.0158 -0.3473,0.0238 -0.5806,0.0238 -0.2429,0 -0.4416,-0.008 -0.5955,-0.0238 -0.154,-0.0156 -0.2778,-0.0394 -0.3722,-0.0672 -0.0893,-0.0315 -0.1539,-0.0712 -0.1936,-0.1106 -0.04,-0.0436 -0.0596,-0.0949 -0.0596,-0.1581 v -6.336 c 0,-0.4425 -0.0498,-0.8459 -0.1442,-1.2053 -0.0992,-0.3637 -0.2529,-0.6761 -0.4663,-0.9409 -0.2135,-0.2607 -0.4816,-0.4623 -0.809,-0.6006 -0.328,-0.1384 -0.7149,-0.2095 -1.1617,-0.2095 -0.551,0 -1.1066,0.1698 -1.6577,0.5097 -0.5559,0.3398 -1.1713,0.8379 -1.8363,1.4941 v 7.2885 c 0,0.0632 -0.0201,0.1145 -0.0598,0.1581 -0.0397,0.0394 -0.1043,0.0791 -0.1984,0.1106 -0.0893,0.0278 -0.2135,0.0516 -0.3722,0.0672 -0.1539,0.0158 -0.3475,0.0238 -0.5811,0.0238 -0.2282,0 -0.4167,-0.008 -0.5805,-0.0238 -0.1588,-0.0156 -0.288,-0.0394 -0.3773,-0.0672 -0.0944,-0.0315 -0.1588,-0.0712 -0.1936,-0.1106 -0.0346,-0.0436 -0.0496,-0.0949 -0.0496,-0.1581 v -6.336 c 0,-0.4425 -0.0545,-0.8459 -0.1588,-1.2053 -0.1091,-0.3637 -0.2678,-0.6761 -0.4816,-0.9409 -0.2131,-0.2607 -0.481,-0.4623 -0.8039,-0.6006 -0.3277,-0.1384 -0.7098,-0.2095 -1.1565,-0.2095 -0.5508,0 -1.1118,0.1698 -1.6727,0.5097 -0.5607,0.3398 -1.1713,0.8379 -1.8315,1.4941 v 7.2885 c 0,0.0632 -0.0201,0.1145 -0.0595,0.1581 -0.04,0.0394 -0.0992,0.0791 -0.1888,0.1106 -0.0893,0.0278 -0.2084,0.0516 -0.3671,0.0672 -0.1539,0.0158 -0.3526,0.0238 -0.5956,0.0238 -0.2381,0 -0.432,-0.008 -0.5856,-0.0238 -0.159,-0.0156 -0.2829,-0.0394 -0.3725,-0.0672 -0.0941,-0.0315 -0.1587,-0.0712 -0.1936,-0.1106 -0.0349,-0.0436 -0.0493,-0.0949 -0.0493,-0.1581 v -10.4267 c 0,-0.0632 0.0144,-0.1148 0.0445,-0.1582 0.0298,-0.0394 0.0842,-0.0791 0.1735,-0.1145 0.0896,-0.0357 0.1987,-0.0595 0.3376,-0.0712 0.1341,-0.0119 0.3177,-0.0158 0.5411,-0.0158 0.2135,0 0.3923,0.004 0.5309,0.0158 0.1443,0.0117 0.2532,0.0355 0.3325,0.0712 0.0749,0.0354 0.1344,0.0751 0.1687,0.1145 0.0301,0.0434 0.0499,0.095 0.0499,0.1582 v 1.3793 c 0.7347,-0.6602 1.4542,-1.1423 2.1495,-1.4465 0.6897,-0.3044 1.3947,-0.4587 2.0994,-0.4587 0.5459,0 1.0323,0.0514 1.464,0.1503 0.4318,0.1029 0.8142,0.2412 1.1416,0.4229 0.3325,0.1817 0.6156,0.3991 0.8441,0.6523 0.233,0.2488 0.4266,0.5295 0.5854,0.8419 0.4368,-0.3796 0.8487,-0.6996 1.241,-0.9647 0.392,-0.2647 0.7693,-0.4742 1.1316,-0.64 0.3625,-0.1622 0.7149,-0.2807 1.0573,-0.3518 0.3472,-0.0751 0.6897,-0.1109 1.0372,-0.1109 0.8441,0 1.5488,0.1188 2.1195,0.3518 0.5708,0.2373 1.0323,0.5534 1.3895,0.9448 0.3526,0.3952 0.6009,0.8578 0.7549,1.3873 0.1488,0.5295 0.223,1.0868 0.223,1.6758 z m 13.6826,-5.6679 c 0,0.3005 -0.0941,0.5139 -0.2829,0.6443 -0.1882,0.1264 -0.4068,0.1896 -0.65,0.1896 h -8.5969 c 0,0.5811 0.0748,1.1027 0.2186,1.5653 0.1437,0.4663 0.3872,0.8654 0.7296,1.1977 0.3376,0.3319 0.7792,0.5847 1.3204,0.7628 0.5456,0.1777 1.2109,0.2687 1.995,0.2687 0.6205,0 1.1767,-0.0397 1.658,-0.1225 0.4864,-0.0791 0.9082,-0.17 1.2608,-0.2687 0.3524,-0.0989 0.6452,-0.1899 0.8734,-0.269 0.2282,-0.0828 0.3968,-0.1225 0.5162,-0.1225 0.0694,0 0.1292,0.0119 0.1837,0.0397 0.0496,0.0275 0.0944,0.0672 0.1193,0.1225 0.0295,0.0513 0.0544,0.1264 0.0694,0.2214 0.0148,0.0986 0.0199,0.2134 0.0199,0.3517 0,0.0987 -0.005,0.1857 -0.015,0.2608 -0.01,0.0712 -0.0199,0.1384 -0.0349,0.1936 -0.015,0.0593 -0.0394,0.1109 -0.0743,0.1582 -0.0348,0.0434 -0.0745,0.087 -0.1289,0.1304 -0.0548,0.0434 -0.2135,0.1106 -0.4717,0.2055 -0.2631,0.099 -0.6004,0.1897 -1.0177,0.2846 -0.4169,0.091 -0.898,0.1741 -1.4442,0.2452 -0.546,0.0749 -1.1265,0.1106 -1.747,0.1106 -1.0772,0 -2.0152,-0.1185 -2.8242,-0.3597 -0.8093,-0.2373 -1.489,-0.5928 -2.0401,-1.0633 -0.551,-0.4743 -0.968,-1.0633 -1.2458,-1.7745 -0.2832,-0.7075 -0.4218,-1.5338 -0.4218,-2.4783 0,-0.8932 0.1437,-1.6997 0.4365,-2.4152 0.288,-0.7115 0.7098,-1.3201 1.2561,-1.8181 0.5456,-0.4981 1.2109,-0.8773 1.9851,-1.1461 0.7741,-0.265 1.6429,-0.3994 2.6011,-0.3994 1.0272,0 1.9009,0.1304 2.6206,0.3955 0.7248,0.2608 1.3153,0.6165 1.7818,1.059 0.4615,0.4428 0.8039,0.9646 1.0225,1.5653 0.2183,0.597 0.3274,1.2373 0.3274,1.9171 z m -2.412,-0.5653 c 0.0295,-1.004 -0.2483,-1.7943 -0.8391,-2.3674 -0.5904,-0.5732 -1.4589,-0.8578 -2.6155,-0.8578 -0.5955,0 -1.1171,0.087 -1.5633,0.2647 -0.4467,0.1781 -0.8192,0.415 -1.1222,0.7115 -0.3025,0.2926 -0.5361,0.6364 -0.6996,1.0236 -0.1639,0.3915 -0.2583,0.7986 -0.2781,1.2254 z m -2.3278,-9.2726 c 0.0592,-0.0831 0.129,-0.1542 0.2035,-0.2056 0.0794,-0.0552 0.1738,-0.0989 0.2874,-0.1303 0.1095,-0.0278 0.2486,-0.0514 0.4125,-0.0672 0.1635,-0.0159 0.3674,-0.0238 0.6004,-0.0238 0.2681,0 0.4912,0.0119 0.6599,0.0396 0.1692,0.0275 0.288,0.0672 0.3574,0.1185 0.0698,0.0474 0.0944,0.1066 0.0845,0.1738 -0.01,0.0635 -0.0496,0.1307 -0.129,0.2018 l -2.6356,2.6995 c -0.0794,0.079 -0.1486,0.1383 -0.2084,0.1856 -0.0646,0.0476 -0.1389,0.0831 -0.2183,0.1109 -0.0844,0.0275 -0.1936,0.0473 -0.3228,0.0592 -0.129,0.0119 -0.2926,0.0159 -0.4864,0.0159 -0.2135,0 -0.3822,-0.0119 -0.5111,-0.0357 -0.1242,-0.0236 -0.2135,-0.0553 -0.2679,-0.0907 -0.055,-0.0397 -0.0746,-0.091 -0.0598,-0.1503 0.0147,-0.0632 0.0547,-0.1383 0.1241,-0.2214 z m 14.2435,5.7549 c 0,0.17 -0.005,0.3123 -0.015,0.4269 -0.01,0.1145 -0.0298,0.2055 -0.0595,0.2726 -0.025,0.0672 -0.0647,0.1146 -0.1092,0.1503 -0.0399,0.0354 -0.0992,0.0513 -0.1788,0.0513 -0.0794,0 -0.1735,-0.0159 -0.2829,-0.0513 -0.1143,-0.0357 -0.2381,-0.0712 -0.3773,-0.1029 -0.1389,-0.0354 -0.2977,-0.0672 -0.4714,-0.0987 -0.1735,-0.0317 -0.3623,-0.0473 -0.5658,-0.0473 -0.2432,0 -0.4813,0.0394 -0.7149,0.1145 -0.2282,0.0791 -0.4762,0.2055 -0.7294,0.3872 -0.2585,0.178 -0.5261,0.415 -0.809,0.7076 -0.2781,0.2965 -0.591,0.6562 -0.9283,1.0831 v 6.8576 c 0,0.0632 -0.0202,0.1145 -0.0596,0.1581 -0.0399,0.0394 -0.0992,0.0791 -0.1887,0.1106 -0.0893,0.0278 -0.2087,0.0516 -0.3674,0.0672 -0.1537,0.0158 -0.3524,0.0238 -0.5953,0.0238 -0.2384,0 -0.432,-0.008 -0.5856,-0.0238 -0.1593,-0.0156 -0.2832,-0.0394 -0.3725,-0.0672 -0.0944,-0.0315 -0.1587,-0.0712 -0.1936,-0.1106 -0.0349,-0.0436 -0.0493,-0.0949 -0.0493,-0.1581 v -10.4267 c 0,-0.0632 0.0144,-0.1148 0.0445,-0.1582 0.0297,-0.0394 0.0842,-0.0791 0.1735,-0.1145 0.0895,-0.0357 0.1987,-0.0595 0.3376,-0.0712 0.134,-0.0119 0.3177,-0.0158 0.5411,-0.0158 0.2134,0 0.392,0.004 0.5309,0.0158 0.1443,0.0117 0.2532,0.0355 0.3325,0.0712 0.0749,0.0354 0.1344,0.0751 0.1687,0.1145 0.03,0.0434 0.0499,0.095 0.0499,0.1582 v 1.5176 c 0.3574,-0.4189 0.6948,-0.7588 1.0074,-1.0235 0.3178,-0.2611 0.6154,-0.4706 0.8935,-0.6206 0.2829,-0.1502 0.561,-0.2531 0.8339,-0.3123 0.2781,-0.0593 0.5562,-0.0871 0.8388,-0.0871 0.1242,0 0.2679,0.004 0.4272,0.0159 0.1587,0.0119 0.3274,0.0355 0.5012,0.0632 0.1737,0.0318 0.3325,0.0672 0.4711,0.1069 0.1392,0.0394 0.2387,0.0748 0.2982,0.1145 0.0592,0.0394 0.0992,0.0751 0.1142,0.1106 0.0199,0.0357 0.0394,0.0791 0.0544,0.1304 0.0151,0.0555 0.025,0.1346 0.0298,0.2372 0.005,0.1069 0.005,0.2452 0.005,0.423 z m 3.3137,9.7509 c 0,0.0632 -0.0201,0.1145 -0.0595,0.1581 -0.04,0.0394 -0.0992,0.0791 -0.1885,0.1106 -0.0896,0.0278 -0.2086,0.0516 -0.3674,0.0672 -0.1539,0.0158 -0.3526,0.0238 -0.5955,0.0238 -0.2382,0 -0.432,-0.008 -0.5857,-0.0238 -0.159,-0.0156 -0.2829,-0.0394 -0.3725,-0.0672 -0.0941,-0.0315 -0.1587,-0.0712 -0.1936,-0.1106 -0.0348,-0.0436 -0.0493,-0.0949 -0.0493,-0.1581 v -10.4267 c 0,-0.0553 0.0145,-0.1069 0.0493,-0.1503 0.0349,-0.0473 0.0995,-0.087 0.1936,-0.1184 0.0896,-0.0278 0.2135,-0.0516 0.3725,-0.0672 0.1537,-0.0159 0.3475,-0.0238 0.5857,-0.0238 0.2429,0 0.4416,0.008 0.5955,0.0238 0.1588,0.0156 0.2778,0.0394 0.3674,0.0672 0.0893,0.0314 0.1485,0.0711 0.1885,0.1184 0.0394,0.0434 0.0595,0.095 0.0595,0.1503 z m 0.2679,-13.9406 c 0,0.4505 -0.1091,0.7549 -0.3223,0.9171 -0.2137,0.1618 -0.6055,0.2449 -1.1815,0.2449 -0.5658,0 -0.953,-0.0791 -1.1616,-0.237 -0.2081,-0.1582 -0.3124,-0.4587 -0.3124,-0.9014 0,-0.4504 0.1091,-0.7549 0.3223,-0.9167 0.2137,-0.1622 0.6055,-0.2452 1.1815,-0.2452 0.5661,0 0.953,0.079 1.1616,0.2372 0.2081,0.1579 0.3124,0.4584 0.3124,0.9011 z m 11.7371,12.3359 c 0,0.1304 -0.005,0.2449 -0.015,0.3398 -0.01,0.099 -0.0249,0.178 -0.0496,0.2452 -0.025,0.0672 -0.0547,0.1225 -0.0893,0.1738 -0.0349,0.0513 -0.1091,0.1264 -0.2336,0.2214 -0.1187,0.0989 -0.3274,0.2174 -0.6154,0.3637 -0.2925,0.1423 -0.6205,0.2727 -0.9827,0.3832 -0.3671,0.1148 -0.7594,0.2055 -1.1861,0.2727 -0.4269,0.0712 -0.8685,0.1069 -1.3254,0.1069 -0.9428,0 -1.7768,-0.1225 -2.5016,-0.3717 -0.7294,-0.2449 -1.3402,-0.6046 -1.8264,-1.0788 -0.4912,-0.4745 -0.8637,-1.0593 -1.1216,-1.747 -0.2583,-0.6919 -0.3875,-1.4862 -0.3875,-2.3913 0,-1.0239 0.1587,-1.9052 0.4716,-2.6445 0.3175,-0.735 0.7495,-1.3399 1.2955,-1.8102 0.551,-0.4702 1.1959,-0.818 1.9358,-1.0474 0.7446,-0.2253 1.5488,-0.3398 2.4122,-0.3398 0.417,0 0.819,0.0314 1.211,0.0949 0.3971,0.0593 0.7543,0.142 1.0871,0.241 0.3277,0.1029 0.6256,0.2174 0.8787,0.3517 0.258,0.1304 0.4468,0.2452 0.5607,0.3359 0.1191,0.095 0.1984,0.1701 0.2432,0.2214 0.0397,0.0553 0.0797,0.1185 0.1092,0.1936 0.0249,0.0712 0.0448,0.1542 0.0547,0.2492 0.01,0.091 0.015,0.2095 0.015,0.3478 0,0.3005 -0.0448,0.51 -0.1293,0.6324 -0.0893,0.1185 -0.1936,0.1778 -0.3225,0.1778 -0.144,0 -0.3127,-0.0633 -0.5015,-0.1936 -0.1888,-0.1265 -0.4269,-0.2688 -0.7194,-0.423 -0.2928,-0.1542 -0.6455,-0.2965 -1.0574,-0.4229 -0.4121,-0.1304 -0.8983,-0.1936 -1.4592,-0.1936 -1.1566,0 -2.0452,0.3518 -2.6606,1.0593 -0.6154,0.7036 -0.923,1.7271 -0.923,3.0671 0,0.6681 0.0794,1.2569 0.2381,1.7628 0.1639,0.5021 0.3972,0.925 0.7098,1.2649 0.3076,0.3359 0.69,0.589 1.1415,0.7548 0.4519,0.1661 0.9681,0.2492 1.5486,0.2492 0.5559,0 1.0426,-0.0712 1.4596,-0.2095 0.4167,-0.1383 0.7741,-0.2925 1.0819,-0.4626 0.3076,-0.1658 0.5656,-0.3161 0.7742,-0.4504 0.2083,-0.1384 0.3674,-0.2055 0.4864,-0.2055 0.0646,0 0.1242,0.0156 0.1738,0.0473 0.0496,0.0315 0.0893,0.0831 0.1241,0.1542 0.0349,0.0751 0.0596,0.1658 0.0743,0.2806 0.015,0.1106 0.0201,0.245 0.0201,0.3992 z m 10.9627,1.6166 c 0,0.0909 -0.0399,0.1621 -0.1145,0.2094 -0.0794,0.0474 -0.1837,0.0791 -0.3223,0.1027 -0.1343,0.0238 -0.3325,0.0357 -0.5958,0.0357 -0.2483,0 -0.4516,-0.0119 -0.6007,-0.0357 -0.1488,-0.0236 -0.2579,-0.0553 -0.3274,-0.1027 -0.0694,-0.0473 -0.1043,-0.1145 -0.1043,-0.2094 v -1.0435 c -0.5706,0.4862 -1.2061,0.8654 -1.9108,1.1344 -0.705,0.2648 -1.4497,0.3992 -2.2337,0.3992 -0.69,0 -1.3153,-0.0712 -1.8715,-0.2135 -0.5556,-0.1423 -1.0321,-0.3518 -1.4241,-0.6205 -0.3923,-0.2687 -0.6999,-0.6049 -0.9184,-0.9961 -0.2183,-0.3951 -0.3274,-0.8419 -0.3274,-1.3439 0,-0.5887 0.1488,-1.0987 0.4515,-1.5296 0.2977,-0.4348 0.7294,-0.7945 1.2955,-1.0791 0.5609,-0.2846 1.2509,-0.5017 2.065,-0.644 0.8138,-0.1423 1.732,-0.2135 2.7493,-0.2135 h 1.8071 v -0.8144 c 0,-0.3991 -0.055,-0.7548 -0.1587,-1.0672 -0.1094,-0.3082 -0.2781,-0.5653 -0.5168,-0.7708 -0.2381,-0.2055 -0.5457,-0.3594 -0.9229,-0.4623 -0.3773,-0.1066 -0.8436,-0.1582 -1.3947,-0.1582 -0.5907,0 -1.1217,0.0553 -1.5882,0.1701 -0.4717,0.1145 -0.8836,0.237 -1.2359,0.3753 -0.3524,0.1383 -0.6503,0.2611 -0.8887,0.3756 -0.233,0.1145 -0.4116,0.1701 -0.5261,0.1701 -0.0794,0 -0.1486,-0.0159 -0.2035,-0.0476 -0.0596,-0.0275 -0.1092,-0.0752 -0.1537,-0.1384 -0.0451,-0.0592 -0.0745,-0.1383 -0.0944,-0.233 -0.0198,-0.0989 -0.03,-0.2015 -0.03,-0.3203 0,-0.1896 0.015,-0.3438 0.0499,-0.4544 0.0345,-0.1108 0.119,-0.2174 0.248,-0.3163 0.1293,-0.0987 0.3574,-0.2174 0.6749,-0.3558 0.3181,-0.1343 0.69,-0.2608 1.1072,-0.3753 0.4119,-0.1108 0.8686,-0.2055 1.3646,-0.2806 0.4918,-0.0751 0.993,-0.1109 1.4942,-0.1109 0.9382,0 1.7373,0.0831 2.3975,0.2532 0.6602,0.1698 1.1914,0.4229 1.5982,0.7509 0.4068,0.3279 0.6999,0.735 0.8836,1.2211 0.1836,0.4865 0.278,1.0554 0.278,1.7037 z m -2.3825,-4.7747 h -2.05 c -0.6551,0 -1.226,0.0434 -1.7124,0.1343 -0.4816,0.0871 -0.8833,0.2214 -1.2062,0.3952 -0.3177,0.174 -0.551,0.3796 -0.7049,0.6247 -0.1488,0.245 -0.2231,0.5256 -0.2231,0.8419 0,0.5415 0.2131,0.9723 0.6449,1.2924 0.4322,0.3203 1.0326,0.4821 1.8119,0.4821 0.6256,0 1.2109,-0.1264 1.747,-0.3832 0.5363,-0.2532 1.1021,-0.6443 1.6928,-1.1702 z m 22.8901,4.7628 c 0,0.0632 -0.0151,0.1145 -0.0499,0.1621 -0.0346,0.0473 -0.0944,0.083 -0.1738,0.1105 -0.0845,0.0278 -0.1936,0.0477 -0.3274,0.0633 -0.1392,0.0158 -0.303,0.0238 -0.4966,0.0238 -0.2033,0 -0.3719,-0.008 -0.5063,-0.0238 -0.1389,-0.0156 -0.248,-0.0355 -0.3373,-0.0633 -0.0845,-0.0275 -0.1488,-0.0632 -0.1888,-0.1105 -0.0346,-0.0476 -0.0544,-0.1029 -0.0544,-0.1621 v -1.3873 c -0.69,0.5967 -1.4046,1.0593 -2.1444,1.3912 -0.7444,0.332 -1.5534,0.4981 -2.437,0.4981 -0.9578,0 -1.777,-0.1503 -2.4517,-0.4468 -0.6803,-0.2962 -1.2311,-0.6996 -1.6531,-1.2053 -0.417,-0.5059 -0.7246,-1.099 -0.9182,-1.7827 -0.1936,-0.6837 -0.2928,-1.4031 -0.2928,-2.158 0,-0.8974 0.1191,-1.7076 0.3623,-2.427 0.2432,-0.7231 0.6004,-1.3399 1.0771,-1.8496 0.4714,-0.51 1.0622,-0.9014 1.7672,-1.1741 0.6995,-0.2727 1.5088,-0.4111 2.4318,-0.4111 0.7642,0 1.4644,0.1344 2.0996,0.3994 0.6353,0.2688 1.2606,0.66 1.8811,1.1778 v -6.0434 c 0,-0.0553 0.015,-0.1069 0.0496,-0.1582 0.0349,-0.0513 0.0992,-0.087 0.1987,-0.1145 0.0941,-0.0278 0.2186,-0.0516 0.3674,-0.0712 0.1536,-0.0198 0.3424,-0.0277 0.5754,-0.0277 0.2435,0 0.4416,0.008 0.5959,0.0277 0.1539,0.0196 0.278,0.0434 0.3625,0.0712 0.0893,0.0275 0.1536,0.0632 0.1981,0.1145 0.0448,0.0513 0.065,0.1029 0.065,0.1582 z m -2.4126,-7.3398 c -0.6452,-0.6443 -1.2708,-1.1344 -1.8763,-1.4703 -0.6054,-0.3362 -1.2359,-0.506 -1.891,-0.506 -0.6103,0 -1.1267,0.1145 -1.5536,0.3478 -0.4269,0.2333 -0.7693,0.5374 -1.0372,0.917 -0.2631,0.3756 -0.4567,0.8062 -0.5757,1.2847 -0.1242,0.4782 -0.1837,0.9643 -0.1837,1.4584 0,0.5255 0.0496,1.0395 0.1539,1.5415 0.0992,0.502 0.2778,0.9484 0.5261,1.3399 0.2531,0.3912 0.5854,0.7036 1.0026,0.9405 0.4119,0.2333 0.938,0.3518 1.5636,0.3518 0.3175,0 0.6253,-0.0354 0.923,-0.1026 0.2928,-0.0711 0.5958,-0.1859 0.9034,-0.3478 0.3078,-0.1621 0.6352,-0.3716 0.9728,-0.6324 0.3374,-0.2571 0.6948,-0.5732 1.0721,-0.9527 z m 16.1691,1.6719 c 0,0.3005 -0.0944,0.5139 -0.2829,0.6443 -0.1885,0.1264 -0.4071,0.1896 -0.65,0.1896 h -8.5969 c 0,0.5811 0.0746,1.1027 0.2186,1.5653 0.1437,0.4663 0.3872,0.8654 0.7296,1.1977 0.3373,0.3319 0.7792,0.5847 1.3204,0.7628 0.5456,0.1777 1.2109,0.2687 1.995,0.2687 0.6205,0 1.1767,-0.0397 1.6577,-0.1225 0.4867,-0.0791 0.9085,-0.17 1.2608,-0.2687 0.3524,-0.0989 0.6455,-0.1899 0.8737,-0.269 0.2282,-0.0828 0.3968,-0.1225 0.5162,-0.1225 0.0694,0 0.1292,0.0119 0.1837,0.0397 0.0493,0.0275 0.0943,0.0672 0.119,0.1225 0.0298,0.0513 0.0547,0.1264 0.0695,0.2214 0.015,0.0986 0.0201,0.2134 0.0201,0.3517 0,0.0987 -0.005,0.1857 -0.015,0.2608 -0.01,0.0712 -0.0199,0.1384 -0.0349,0.1936 -0.015,0.0593 -0.0397,0.1109 -0.0746,0.1582 -0.0348,0.0434 -0.0742,0.087 -0.1287,0.1304 -0.0549,0.0434 -0.2137,0.1106 -0.4716,0.2055 -0.2631,0.099 -0.6007,0.1897 -1.0177,0.2846 -0.4169,0.091 -0.8983,0.1741 -1.4442,0.2452 -0.546,0.0749 -1.1265,0.1106 -1.747,0.1106 -1.0772,0 -2.0152,-0.1185 -2.8245,-0.3597 -0.809,-0.2373 -1.4887,-0.5928 -2.0398,-1.0633 -0.551,-0.4743 -0.968,-1.0633 -1.2461,-1.7745 -0.2829,-0.7075 -0.4218,-1.5338 -0.4218,-2.4783 0,-0.8932 0.144,-1.6997 0.4368,-2.4152 0.288,-0.7115 0.7098,-1.3201 1.2561,-1.8181 0.5456,-0.4981 1.2109,-0.8773 1.9851,-1.1461 0.7741,-0.265 1.6427,-0.3994 2.601,-0.3994 1.0273,0 1.901,0.1304 2.6207,0.3955 0.7248,0.2608 1.3153,0.6165 1.7818,1.059 0.4615,0.4428 0.8039,0.9646 1.0225,1.5653 0.2183,0.597 0.3274,1.2373 0.3274,1.9171 z m -2.412,-0.5653 c 0.0295,-1.004 -0.2486,-1.7943 -0.8391,-2.3674 -0.5904,-0.5732 -1.459,-0.8578 -2.6155,-0.8578 -0.5955,0 -1.1171,0.087 -1.5636,0.2647 -0.4467,0.1781 -0.8189,0.415 -1.1219,0.7115 -0.3025,0.2926 -0.5361,0.6364 -0.6999,1.0236 -0.1636,0.3915 -0.258,0.7986 -0.2778,1.2254 z m 6.6739,6.2332 c 0,0.0632 -0.0199,0.1145 -0.0593,0.1581 -0.0399,0.0394 -0.0995,0.0791 -0.1887,0.1106 -0.0893,0.0278 -0.2087,0.0516 -0.3674,0.0672 -0.1537,0.0158 -0.3524,0.0238 -0.5956,0.0238 -0.2381,0 -0.4317,-0.008 -0.5853,-0.0238 -0.1593,-0.0156 -0.2832,-0.0394 -0.3725,-0.0672 -0.0944,-0.0315 -0.1587,-0.0712 -0.1936,-0.1106 -0.0349,-0.0436 -0.0496,-0.0949 -0.0496,-0.1581 v -15.4662 c 0,-0.0635 0.0147,-0.1187 0.0496,-0.1621 0.0349,-0.0473 0.0992,-0.087 0.1936,-0.1185 0.0893,-0.0278 0.2132,-0.0516 0.3725,-0.0672 0.1536,-0.0158 0.3472,-0.0238 0.5853,-0.0238 0.2432,0 0.4419,0.008 0.5956,0.0238 0.1587,0.0156 0.2781,0.0394 0.3674,0.0672 0.0892,0.0315 0.1488,0.0712 0.1887,0.1185 0.0394,0.0434 0.0593,0.0986 0.0593,0.1621 z m 19.7183,-3.917 c 0,0.6996 -0.1635,1.3241 -0.4864,1.8735 -0.3274,0.5453 -0.7792,1.0119 -1.3549,1.3952 -0.5758,0.3795 -1.2558,0.6681 -2.035,0.8617 -0.7841,0.1936 -1.6231,0.2886 -2.5266,0.2886 -0.6301,0 -1.216,-0.0434 -1.752,-0.1265 -0.5412,-0.087 -1.0225,-0.1936 -1.4443,-0.3163 -0.4221,-0.1225 -0.7744,-0.2529 -1.0621,-0.3832 -0.2829,-0.1344 -0.4867,-0.2452 -0.5959,-0.3399 -0.1139,-0.091 -0.1933,-0.2095 -0.2483,-0.3518 -0.0544,-0.1423 -0.0794,-0.3322 -0.0794,-0.5692 0,-0.1701 0.0102,-0.3124 0.0301,-0.4229 0.0198,-0.1109 0.0493,-0.2016 0.0845,-0.2688 0.0394,-0.0711 0.0892,-0.1187 0.1485,-0.1462 0.0598,-0.0278 0.1244,-0.0397 0.2038,-0.0397 0.1338,0 0.3274,0.0672 0.5754,0.1976 0.2435,0.1306 0.561,0.2729 0.9533,0.4269 0.387,0.1502 0.8538,0.2965 1.4049,0.4308 0.5456,0.1344 1.1809,0.2016 1.8958,0.2016 0.5459,0 1.0423,-0.0593 1.4938,-0.1738 0.4519,-0.1148 0.8391,-0.2766 1.1617,-0.4901 0.3274,-0.2095 0.5754,-0.4705 0.7492,-0.7787 0.1737,-0.3084 0.263,-0.6602 0.263,-1.0513 0,-0.423 -0.1187,-0.7867 -0.362,-1.0871 -0.2434,-0.3002 -0.5609,-0.5653 -0.9581,-0.7943 -0.4019,-0.2254 -0.8538,-0.4348 -1.3597,-0.6245 -0.5114,-0.1899 -1.0324,-0.3795 -1.5636,-0.5771 -0.531,-0.1976 -1.0523,-0.415 -1.5537,-0.6562 -0.5063,-0.237 -0.9581,-0.5176 -1.355,-0.8419 -0.3971,-0.324 -0.7197,-0.7036 -0.9629,-1.1424 -0.2483,-0.4345 -0.3722,-0.9564 -0.3722,-1.565 0,-0.6284 0.1437,-1.1857 0.4269,-1.6758 0.288,-0.4862 0.6849,-0.8975 1.1909,-1.2294 0.5116,-0.332 1.1171,-0.5851 1.817,-0.7588 0.7047,-0.1741 1.459,-0.2608 2.2731,-0.2608 0.4169,0 0.8339,0.0275 1.256,0.0867 0.4218,0.0595 0.8186,0.1347 1.1908,0.2333 0.3725,0.095 0.705,0.2055 0.9978,0.324 0.288,0.1188 0.4813,0.2174 0.5706,0.2886 0.0944,0.0751 0.1542,0.1306 0.1837,0.174 0.0301,0.0434 0.0499,0.0987 0.0698,0.1622 0.0195,0.0671 0.0345,0.1459 0.0445,0.2409 0.01,0.091 0.015,0.2095 0.015,0.3597 0,0.1383 -0.005,0.2608 -0.0199,0.3716 -0.015,0.1066 -0.0396,0.1976 -0.0694,0.2727 -0.025,0.0712 -0.0695,0.1265 -0.1193,0.1622 -0.0545,0.0354 -0.114,0.0513 -0.1837,0.0513 -0.1089,0 -0.273,-0.0553 -0.5012,-0.1622 -0.2282,-0.1105 -0.5063,-0.2293 -0.8385,-0.3676 -0.328,-0.1344 -0.72,-0.2568 -1.1715,-0.3674 -0.4468,-0.1148 -0.9531,-0.1701 -1.5191,-0.1701 -0.521,0 -0.9777,0.0553 -1.3646,0.1661 -0.3872,0.1146 -0.7098,0.2608 -0.9632,0.4465 -0.2484,0.186 -0.4369,0.4034 -0.5658,0.6562 -0.1242,0.2568 -0.1885,0.5256 -0.1885,0.8102 0,0.415 0.119,0.7747 0.3622,1.0751 0.2432,0.3005 0.5655,0.5653 0.9681,0.7986 0.4067,0.233 0.8634,0.4425 1.3796,0.6363 0.5111,0.1936 1.0372,0.3873 1.5732,0.5848 0.5312,0.1976 1.0573,0.4111 1.569,0.6483 0.5159,0.2333 0.9728,0.5139 1.3796,0.834 0.402,0.3203 0.7248,0.6956 0.9729,1.1344 0.248,0.4348 0.3721,0.9485 0.3721,1.5454 z m 12.6604,3.917 c 0,0.0632 -0.015,0.1145 -0.0499,0.1581 -0.0343,0.0394 -0.0941,0.0791 -0.1836,0.1106 -0.0842,0.0278 -0.1985,0.0516 -0.3425,0.0672 -0.1386,0.0158 -0.3124,0.0238 -0.5162,0.0238 -0.2185,0 -0.4016,-0.008 -0.5408,-0.0238 -0.144,-0.0156 -0.2531,-0.0394 -0.3376,-0.0672 -0.0794,-0.0315 -0.1389,-0.0712 -0.1636,-0.1106 -0.03,-0.0436 -0.0451,-0.0949 -0.0451,-0.1581 v -1.3794 c -0.7491,0.656 -1.4839,1.1305 -2.2135,1.4307 -0.7246,0.3004 -1.4641,0.4507 -2.2088,0.4507 -0.8736,0 -1.6081,-0.1146 -2.2039,-0.3478 -0.5956,-0.2294 -1.0817,-0.5454 -1.4491,-0.9448 -0.3674,-0.3952 -0.6304,-0.8575 -0.7943,-1.3873 -0.1587,-0.5295 -0.2381,-1.1738 -0.2381,-1.9287 v -6.3201 c 0,-0.0632 0.0148,-0.1148 0.0496,-0.1582 0.0349,-0.0394 0.0993,-0.0791 0.1985,-0.1145 0.0944,-0.0357 0.2233,-0.0595 0.3775,-0.0712 0.1537,-0.0119 0.3473,-0.0158 0.5806,-0.0158 0.233,0 0.4266,0.004 0.5805,0.0158 0.1542,0.0117 0.2781,0.0355 0.3722,0.0712 0.0896,0.0354 0.1539,0.0751 0.1939,0.1145 0.0397,0.0434 0.0592,0.095 0.0592,0.1582 v 6.0709 c 0,0.6089 0.055,1.099 0.169,1.4664 0.1091,0.3677 0.2778,0.68 0.5062,0.9368 0.2282,0.2608 0.5213,0.4624 0.8689,0.6047 0.3472,0.1423 0.7543,0.2134 1.2208,0.2134 0.6004,0 1.2011,-0.1698 1.7969,-0.5096 0.6004,-0.3402 1.2308,-0.8382 1.9009,-1.4942 v -7.2884 c 0,-0.0632 0.0151,-0.1148 0.0494,-0.1582 0.0348,-0.0394 0.0995,-0.0791 0.1987,-0.1145 0.0944,-0.0357 0.2185,-0.0595 0.3673,-0.0712 0.154,-0.0119 0.3476,-0.0158 0.5905,-0.0158 0.2336,0 0.4269,0.004 0.5811,0.0158 0.1536,0.0117 0.2778,0.0355 0.3623,0.0712 0.0893,0.0354 0.1539,0.0751 0.1984,0.1145 0.0448,0.0434 0.0646,0.095 0.0646,0.1582 z" />
      <path
         inkscape:connector-curvature="0"
         id="path5487"
         style="fill:#1b1918;fill-rule:evenodd"
         d="m 375.3309,427.1134 c 0,0.17 -0.005,0.3123 -0.015,0.4269 -0.01,0.1145 -0.0298,0.2055 -0.0593,0.2726 -0.0249,0.0672 -0.0649,0.1146 -0.1094,0.1503 -0.04,0.0354 -0.0992,0.0513 -0.1786,0.0513 -0.0793,0 -0.1737,-0.0159 -0.2832,-0.0513 -0.1142,-0.0357 -0.2381,-0.0712 -0.3772,-0.1029 -0.1387,-0.0354 -0.2977,-0.0672 -0.4712,-0.0987 -0.1737,-0.0317 -0.3625,-0.0473 -0.566,-0.0473 -0.2433,0 -0.4814,0.0394 -0.7149,0.1145 -0.2282,0.0791 -0.4763,0.2055 -0.7294,0.3872 -0.2582,0.178 -0.5261,0.415 -0.809,0.7076 -0.2781,0.2965 -0.591,0.6562 -0.9283,1.0831 v 6.8576 c 0,0.0632 -0.0199,0.1145 -0.0596,0.1581 -0.0397,0.0394 -0.0992,0.0791 -0.1885,0.1106 -0.0896,0.0278 -0.2086,0.0516 -0.3673,0.0672 -0.154,0.0158 -0.3527,0.0238 -0.5956,0.0238 -0.2381,0 -0.4317,-0.008 -0.5856,-0.0238 -0.1591,-0.0156 -0.2829,-0.0394 -0.3722,-0.0672 -0.0944,-0.0315 -0.1591,-0.0712 -0.1939,-0.1106 -0.0349,-0.0436 -0.0493,-0.0949 -0.0493,-0.1581 v -10.4267 c 0,-0.0632 0.0144,-0.1148 0.0445,-0.1582 0.0297,-0.0394 0.0841,-0.0791 0.1737,-0.1145 0.0893,-0.0357 0.1984,-0.0595 0.3373,-0.0712 0.1344,-0.0119 0.3178,-0.0158 0.5412,-0.0158 0.2134,0 0.3923,0.004 0.5309,0.0158 0.1443,0.0117 0.2531,0.0355 0.3325,0.0712 0.0748,0.0354 0.1344,0.0751 0.169,0.1145 0.0297,0.0434 0.0496,0.095 0.0496,0.1582 v 1.5176 c 0.3574,-0.4189 0.695,-0.7588 1.0074,-1.0235 0.318,-0.2611 0.6154,-0.4706 0.8935,-0.6206 0.2832,-0.1502 0.561,-0.2531 0.8339,-0.3123 0.2781,-0.0593 0.5562,-0.0871 0.8388,-0.0871 0.1242,0 0.2682,0.004 0.4272,0.0159 0.1587,0.0119 0.3274,0.0355 0.5011,0.0632 0.1738,0.0318 0.3326,0.0672 0.4714,0.1069 0.1392,0.0394 0.2384,0.0748 0.298,0.1145 0.0595,0.0394 0.0992,0.0751 0.1142,0.1106 0.0198,0.0357 0.0394,0.0791 0.0544,0.1304 0.0151,0.0555 0.025,0.1346 0.0301,0.2372 0.005,0.1069 0.005,0.2452 0.005,0.423 z m -149.4445,25.8828 c 0,1.2135 -0.1786,2.3043 -0.536,3.2769 -0.3623,0.9723 -0.8986,1.7983 -1.6084,2.482 -0.7146,0.68 -1.6081,1.2056 -2.685,1.5732 -1.0772,0.3677 -2.3329,0.5494 -3.7675,0.5494 -1.4145,0 -2.6357,-0.1661 -3.6678,-0.502 -1.0374,-0.336 -1.8864,-0.8261 -2.5614,-1.4664 -0.6749,-0.6404 -1.1763,-1.4349 -1.5037,-2.3834 -0.3325,-0.9485 -0.4964,-2.0395 -0.4964,-3.2726 0,-1.182 0.1789,-2.2569 0.5361,-3.2213 0.3625,-0.9646 0.8983,-1.7827 1.618,-2.4585 0.7146,-0.6721 1.6132,-1.1936 2.6903,-1.5613 1.0721,-0.3676 2.3276,-0.5493 3.7673,-0.5493 1.3847,0 2.5911,0.1658 3.6184,0.498 1.0273,0.332 1.8862,0.8141 2.5662,1.4505 0.6849,0.6364 1.1959,1.423 1.5284,2.3635 0.3328,0.9369 0.5015,2.0121 0.5015,3.2213 z m -2.6504,0.1384 c 0,-0.8459 -0.0944,-1.6362 -0.2832,-2.3636 -0.1885,-0.7273 -0.5011,-1.3598 -0.9428,-1.8972 -0.4419,-0.5335 -1.0278,-0.9524 -1.762,-1.2529 -0.7398,-0.3005 -1.6478,-0.4507 -2.73,-0.4507 -1.0871,0 -1.9956,0.1621 -2.7298,0.4861 -0.7348,0.3243 -1.3354,0.7552 -1.7921,1.2926 -0.4615,0.5414 -0.7891,1.1699 -0.9878,1.8933 -0.1982,0.7194 -0.2974,1.4743 -0.2974,2.2688 0,0.8813 0.0941,1.6878 0.2778,2.4268 0.1834,0.7429 0.4912,1.3793 0.9281,1.917 0.4317,0.5335 1.0173,0.9485 1.7472,1.245 0.7297,0.2965 1.6475,0.4468 2.7496,0.4468 1.0973,0 2.0152,-0.1622 2.7598,-0.4862 0.7444,-0.3243 1.3451,-0.7591 1.8017,-1.3124 0.4516,-0.5494 0.7793,-1.1897 0.9729,-1.9129 0.1936,-0.7234 0.288,-1.4901 0.288,-2.3005 z m 13.9306,5.6364 c 0,0.1304 -0.005,0.2449 -0.015,0.3398 -0.01,0.099 -0.0247,0.1781 -0.0494,0.2452 -0.0249,0.0672 -0.0547,0.1225 -0.0893,0.1738 -0.0348,0.0513 -0.1094,0.1264 -0.2335,0.2214 -0.1188,0.0989 -0.3274,0.2174 -0.6154,0.3637 -0.2929,0.1423 -0.6205,0.2727 -0.9828,0.3832 -0.3671,0.1148 -0.7594,0.2055 -1.1863,0.2727 -0.4266,0.0712 -0.8685,0.1069 -1.3252,0.1069 -0.9428,0 -1.777,-0.1225 -2.5016,-0.3717 -0.7296,-0.2449 -1.3402,-0.6046 -1.8266,-1.0788 -0.4913,-0.4745 -0.8635,-1.0593 -1.1217,-1.747 -0.2579,-0.6919 -0.3872,-1.4862 -0.3872,-2.3913 0,-1.0239 0.1587,-1.9052 0.4717,-2.6445 0.3175,-0.735 0.7492,-1.3399 1.2954,-1.8102 0.5511,-0.4702 1.196,-0.818 1.9358,-1.0474 0.7447,-0.2253 1.5486,-0.3398 2.4123,-0.3398 0.4167,0 0.8186,0.0314 1.2109,0.0949 0.3969,0.0593 0.7543,0.142 1.0871,0.241 0.3274,0.1029 0.6253,0.2174 0.8785,0.3517 0.2582,0.1304 0.4467,0.2452 0.5607,0.336 0.1193,0.0949 0.1987,0.17 0.2435,0.2213 0.0397,0.0553 0.0793,0.1185 0.1088,0.1936 0.025,0.0712 0.0451,0.1542 0.055,0.2492 0.01,0.091 0.015,0.2095 0.015,0.3478 0,0.3005 -0.045,0.51 -0.1292,0.6324 -0.0896,0.1185 -0.1936,0.1778 -0.3226,0.1778 -0.1443,0 -0.3129,-0.0633 -0.5015,-0.1936 -0.1887,-0.1265 -0.4269,-0.2688 -0.7194,-0.423 -0.2931,-0.1542 -0.6454,-0.2965 -1.0573,-0.4229 -0.4122,-0.1304 -0.8986,-0.1936 -1.4596,-0.1936 -1.1565,0 -2.0449,0.3518 -2.6603,1.0593 -0.6154,0.7036 -0.9229,1.7271 -0.9229,3.0671 0,0.6681 0.0793,1.2569 0.2381,1.7629 0.1635,0.502 0.3971,0.9249 0.7098,1.2648 0.3075,0.3359 0.6896,0.589 1.1415,0.7548 0.4515,0.1661 0.9677,0.2492 1.5483,0.2492 0.5561,0 1.0428,-0.0711 1.4595,-0.2095 0.417,-0.1383 0.7742,-0.2925 1.0823,-0.4626 0.3075,-0.1658 0.5655,-0.3161 0.7741,-0.4504 0.2084,-0.1383 0.3674,-0.2055 0.4862,-0.2055 0.0649,0 0.1244,0.0156 0.1737,0.0473 0.0499,0.0315 0.0893,0.0831 0.1242,0.1542 0.0351,0.0751 0.0595,0.1658 0.0745,0.2806 0.0151,0.1106 0.0199,0.245 0.0199,0.3992 z m 12.4911,-4.0632 c 0,0.3005 -0.0941,0.5139 -0.2829,0.6443 -0.1882,0.1264 -0.4067,0.1896 -0.6499,0.1896 h -8.597 c 0,0.5811 0.0749,1.1027 0.2186,1.5653 0.1437,0.4663 0.3872,0.8654 0.7296,1.1977 0.3376,0.3319 0.7793,0.5847 1.3204,0.7628 0.5457,0.1777 1.211,0.2687 1.9953,0.2687 0.6202,0 1.1764,-0.0397 1.6577,-0.1225 0.4864,-0.0791 0.9082,-0.17 1.2609,-0.2687 0.3523,-0.0989 0.6451,-0.1899 0.8733,-0.269 0.2282,-0.0828 0.3969,-0.1225 0.5162,-0.1225 0.0695,0 0.1293,0.0119 0.1837,0.0397 0.0496,0.0275 0.0944,0.0672 0.1193,0.1225 0.0295,0.0513 0.0545,0.1264 0.0695,0.2214 0.0147,0.0986 0.0198,0.2134 0.0198,0.3518 0,0.0986 -0.005,0.1856 -0.015,0.2607 -0.01,0.0712 -0.0198,0.1384 -0.0349,0.1936 -0.015,0.0593 -0.0394,0.1109 -0.0742,0.1582 -0.0349,0.0434 -0.0746,0.087 -0.129,0.1304 -0.0547,0.0434 -0.2135,0.1106 -0.4717,0.2055 -0.2631,0.099 -0.6004,0.1897 -1.0176,0.2846 -0.417,0.091 -0.8981,0.1741 -1.4443,0.2452 -0.5459,0.0749 -1.1265,0.1106 -1.747,0.1106 -1.0771,0 -2.0151,-0.1185 -2.8241,-0.3597 -0.8093,-0.2373 -1.4891,-0.5928 -2.0401,-1.0633 -0.5511,-0.4743 -0.9678,-1.0633 -1.2459,-1.7745 -0.2831,-0.7075 -0.4218,-1.5338 -0.4218,-2.4783 0,-0.8932 0.1438,-1.6997 0.4369,-2.4152 0.2877,-0.7115 0.7098,-1.3201 1.2557,-1.8181 0.5457,-0.498 1.211,-0.8773 1.9851,-1.146 0.7744,-0.2651 1.643,-0.3995 2.6011,-0.3995 1.0273,0 1.9009,0.1304 2.6206,0.3955 0.7248,0.2608 1.3153,0.6165 1.7822,1.059 0.4612,0.4428 0.8036,0.9646 1.0221,1.5653 0.2183,0.597 0.3274,1.2373 0.3274,1.9171 z m -2.412,-0.5652 c 0.0298,-1.0041 -0.2483,-1.7944 -0.839,-2.3675 -0.5905,-0.5732 -1.459,-0.8578 -2.6156,-0.8578 -0.5955,0 -1.1171,0.087 -1.5633,0.2647 -0.4467,0.1781 -0.8192,0.415 -1.1219,0.7115 -0.3028,0.2926 -0.5363,0.6364 -0.6999,1.0236 -0.1638,0.3915 -0.2582,0.7986 -0.2781,1.2255 z m 14.1194,6.245 c 0,0.091 -0.0397,0.1621 -0.1142,0.2094 -0.0794,0.0474 -0.1837,0.0791 -0.3223,0.1027 -0.1344,0.0238 -0.3325,0.0357 -0.5962,0.0357 -0.248,0 -0.4512,-0.0119 -0.6003,-0.0357 -0.1489,-0.0236 -0.2583,-0.0553 -0.3274,-0.1027 -0.0695,-0.0473 -0.1044,-0.1145 -0.1044,-0.2094 v -1.0435 c -0.5706,0.4862 -1.2061,0.8654 -1.9108,1.1345 -0.705,0.2647 -1.4496,0.3991 -2.2337,0.3991 -0.6899,0 -1.3153,-0.0712 -1.8714,-0.2135 -0.5556,-0.1423 -1.0324,-0.3518 -1.4241,-0.6205 -0.3924,-0.2687 -0.6999,-0.6049 -0.9185,-0.9961 -0.2182,-0.3951 -0.3274,-0.8419 -0.3274,-1.3439 0,-0.5887 0.1488,-1.0987 0.4516,-1.5296 0.2976,-0.4348 0.7293,-0.7945 1.2954,-1.0791 0.561,-0.2846 1.2509,-0.5017 2.0651,-0.644 0.8135,-0.1423 1.7319,-0.2135 2.7493,-0.2135 h 1.8071 v -0.8144 c 0,-0.3991 -0.055,-0.7548 -0.1591,-1.0672 -0.1091,-0.3082 -0.2778,-0.5653 -0.5164,-0.7708 -0.2381,-0.2055 -0.5457,-0.3594 -0.923,-0.4623 -0.3773,-0.1066 -0.8436,-0.1582 -1.3946,-0.1582 -0.5911,0 -1.1217,0.0553 -1.5883,0.1701 -0.4717,0.1145 -0.8835,0.237 -1.2359,0.3753 -0.3523,0.1383 -0.6505,0.2611 -0.8887,0.3756 -0.233,0.1145 -0.4118,0.1701 -0.5261,0.1701 -0.0793,0 -0.1488,-0.0159 -0.2035,-0.0476 -0.0595,-0.0275 -0.1091,-0.0752 -0.1536,-0.1384 -0.0451,-0.0592 -0.0746,-0.1383 -0.0944,-0.233 -0.0202,-0.0989 -0.0301,-0.2015 -0.0301,-0.3203 0,-0.1896 0.0151,-0.3438 0.0499,-0.4544 0.0346,-0.1108 0.1191,-0.2174 0.248,-0.3163 0.1293,-0.0987 0.3575,-0.2174 0.675,-0.3558 0.318,-0.1343 0.6899,-0.2608 1.1072,-0.3753 0.4119,-0.1108 0.8685,-0.2055 1.3646,-0.2806 0.4918,-0.0751 0.993,-0.1109 1.4941,-0.1109 0.9383,0 1.7374,0.0831 2.3973,0.2532 0.6605,0.1698 1.1914,0.4229 1.5984,0.7509 0.4068,0.3279 0.6999,0.735 0.8836,1.2211 0.1837,0.4865 0.2778,1.0554 0.2778,1.7037 z m -2.3822,-4.7747 h -2.05 c -0.6551,0 -1.226,0.0434 -1.7125,0.1343 -0.4816,0.0871 -0.8835,0.2214 -1.2061,0.3952 -0.3178,0.174 -0.5511,0.3796 -0.705,0.6247 -0.1488,0.245 -0.2231,0.5256 -0.2231,0.8419 0,0.5415 0.2132,0.9723 0.6449,1.2924 0.4323,0.3203 1.0327,0.4821 1.8119,0.4821 0.6253,0 1.211,-0.1264 1.747,-0.3832 0.5363,-0.2532 1.1021,-0.6443 1.6929,-1.1702 z m 16.2187,4.7628 c 0,0.0632 -0.0199,0.1145 -0.0596,0.1581 -0.0396,0.0394 -0.0992,0.0791 -0.1885,0.1106 -0.0892,0.0278 -0.2086,0.0516 -0.3673,0.0672 -0.1539,0.0158 -0.3476,0.0238 -0.5811,0.0238 -0.2481,0 -0.4462,-0.008 -0.6004,-0.0238 -0.1587,-0.0156 -0.2781,-0.0394 -0.3674,-0.0672 -0.0893,-0.0315 -0.1488,-0.0712 -0.1882,-0.1106 -0.04,-0.0436 -0.0598,-0.0949 -0.0598,-0.1581 v -6.1067 c 0,-0.5927 -0.0595,-1.0752 -0.1738,-1.4346 -0.1139,-0.3637 -0.2829,-0.6761 -0.5062,-0.9409 -0.2231,-0.2607 -0.506,-0.4623 -0.8587,-0.6006 -0.3523,-0.1383 -0.7594,-0.2095 -1.2208,-0.2095 -0.601,0 -1.1965,0.1698 -1.7918,0.5097 -0.6007,0.3398 -1.226,0.8379 -1.8814,1.4941 v 7.2885 c 0,0.0632 -0.0201,0.1145 -0.0595,0.1581 -0.04,0.0394 -0.0992,0.0791 -0.1885,0.1106 -0.0896,0.0278 -0.2086,0.0516 -0.3674,0.0672 -0.1539,0.0158 -0.3526,0.0238 -0.5955,0.0238 -0.2381,0 -0.432,-0.008 -0.5857,-0.0238 -0.159,-0.0156 -0.2829,-0.0394 -0.3724,-0.0672 -0.0942,-0.0315 -0.1588,-0.0712 -0.1936,-0.1106 -0.0349,-0.0436 -0.0494,-0.0949 -0.0494,-0.1581 V 449.949 c 0,-0.0632 0.0145,-0.1148 0.0445,-0.1582 0.0298,-0.0394 0.0842,-0.0791 0.1735,-0.1145 0.0896,-0.0357 0.1987,-0.0595 0.3376,-0.0712 0.1341,-0.0119 0.3178,-0.0158 0.5412,-0.0158 0.2134,0 0.3923,0.004 0.5309,0.0158 0.1443,0.0117 0.2531,0.0355 0.3325,0.0712 0.0748,0.0354 0.1343,0.0751 0.1686,0.1145 0.0301,0.0434 0.0499,0.095 0.0499,0.1582 v 1.3793 c 0.7348,-0.6602 1.4641,-1.1423 2.1989,-1.4465 0.7296,-0.3044 1.4641,-0.4587 2.2087,-0.4587 0.8686,0 1.6033,0.1188 2.1989,0.3518 0.5955,0.2373 1.0771,0.5534 1.4445,0.9448 0.3671,0.3952 0.6301,0.8578 0.7892,1.3873 0.1587,0.5295 0.2381,1.1659 0.2381,1.9052 z m 4.9714,0 c 0,0.0632 -0.0199,0.1145 -0.0596,0.1581 -0.0396,0.0394 -0.0992,0.0791 -0.1885,0.1106 -0.0892,0.0278 -0.2086,0.0516 -0.3673,0.0672 -0.1539,0.0158 -0.3524,0.0238 -0.5956,0.0238 -0.2381,0 -0.4317,-0.008 -0.5856,-0.0238 -0.159,-0.0156 -0.2829,-0.0394 -0.3722,-0.0672 -0.0944,-0.0315 -0.1588,-0.0712 -0.1936,-0.1106 -0.0349,-0.0436 -0.0496,-0.0949 -0.0496,-0.1581 V 449.949 c 0,-0.0632 0.0147,-0.1148 0.0496,-0.1582 0.0348,-0.0394 0.0992,-0.0791 0.1936,-0.1145 0.0893,-0.0357 0.2132,-0.0595 0.3722,-0.0712 0.1539,-0.0119 0.3475,-0.0158 0.5856,-0.0158 0.2432,0 0.4417,0.004 0.5956,0.0158 0.1587,0.0117 0.2781,0.0355 0.3673,0.0712 0.0893,0.0354 0.1489,0.0751 0.1885,0.1145 0.0397,0.0434 0.0596,0.095 0.0596,0.1582 z M 279.9,444.8699 c 0.0598,-0.0831 0.1293,-0.1542 0.2035,-0.2056 0.0794,-0.0552 0.1738,-0.0989 0.288,-0.1303 0.1094,-0.0278 0.2483,-0.0514 0.4119,-0.0672 0.1638,-0.0159 0.3674,-0.0238 0.6007,-0.0238 0.2678,0 0.4915,0.0119 0.6602,0.0396 0.1686,0.0275 0.288,0.0672 0.3574,0.1185 0.0694,0.0474 0.0944,0.1066 0.0845,0.1738 -0.0102,0.0635 -0.0499,0.1307 -0.1293,0.2018 l -2.6356,2.6995 c -0.0794,0.079 -0.1489,0.1383 -0.2084,0.1856 -0.0646,0.0476 -0.1392,0.0831 -0.2185,0.1109 -0.0842,0.0275 -0.1936,0.0473 -0.3223,0.0592 -0.1293,0.0119 -0.2931,0.0159 -0.4867,0.0159 -0.2132,0 -0.3822,-0.0119 -0.5111,-0.0357 -0.1245,-0.0236 -0.2138,-0.0553 -0.2682,-0.0907 -0.0544,-0.0397 -0.0743,-0.091 -0.0595,-0.1503 0.015,-0.0632 0.0544,-0.1383 0.1239,-0.2214 z m 12.7247,15.5177 c 0,0.091 -0.0399,0.1621 -0.1142,0.2094 -0.0794,0.0474 -0.1837,0.0791 -0.3226,0.1027 -0.1341,0.0238 -0.3325,0.0357 -0.5958,0.0357 -0.2481,0 -0.4513,-0.0119 -0.6004,-0.0357 -0.1488,-0.0236 -0.2583,-0.0553 -0.3277,-0.1027 -0.0694,-0.0473 -0.1043,-0.1145 -0.1043,-0.2094 v -1.0435 c -0.5706,0.4862 -1.2059,0.8654 -1.9108,1.1345 -0.7047,0.2647 -1.4494,0.3991 -2.2338,0.3991 -0.6896,0 -1.3152,-0.0712 -1.8711,-0.2135 -0.5556,-0.1423 -1.0324,-0.3518 -1.4244,-0.6205 -0.392,-0.2687 -0.6996,-0.6049 -0.9182,-0.9961 -0.2182,-0.3951 -0.3276,-0.8419 -0.3276,-1.3439 0,-0.5887 0.1488,-1.0987 0.4518,-1.5296 0.2976,-0.4348 0.7294,-0.7945 1.2954,-1.0791 0.561,-0.2846 1.2507,-0.5017 2.0648,-0.644 0.8138,-0.1423 1.7322,-0.2135 2.7496,-0.2135 h 1.8068 v -0.8144 c 0,-0.3991 -0.0547,-0.7548 -0.1587,-1.0672 -0.1092,-0.3082 -0.2781,-0.5653 -0.5165,-0.7708 -0.2381,-0.2055 -0.5457,-0.3594 -0.923,-0.4623 -0.3773,-0.1066 -0.8436,-0.1582 -1.3946,-0.1582 -0.591,0 -1.1217,0.0553 -1.5885,0.1701 -0.4717,0.1145 -0.8833,0.237 -1.236,0.3753 -0.3523,0.1383 -0.6502,0.2611 -0.8883,0.3756 -0.2333,0.1145 -0.4119,0.1701 -0.5261,0.1701 -0.0794,0 -0.1489,-0.0159 -0.2036,-0.0476 -0.0595,-0.0275 -0.1094,-0.0752 -0.1539,-0.1384 -0.0448,-0.0592 -0.0743,-0.1383 -0.0944,-0.233 -0.0198,-0.0989 -0.0297,-0.2015 -0.0297,-0.3203 0,-0.1896 0.015,-0.3438 0.0498,-0.4544 0.0343,-0.1108 0.1188,-0.2174 0.2481,-0.3163 0.1292,-0.0987 0.3574,-0.2174 0.6749,-0.3558 0.3178,-0.1343 0.69,-0.2608 1.1069,-0.3753 0.4119,-0.1108 0.8686,-0.2055 1.3649,-0.2806 0.4915,-0.0751 0.9927,-0.1109 1.4939,-0.1109 0.9385,0 1.7376,0.0831 2.3975,0.2532 0.6602,0.1698 1.1914,0.4229 1.5982,0.7509 0.407,0.3279 0.6999,0.735 0.8835,1.2211 0.1837,0.4865 0.2781,1.0554 0.2781,1.7037 z m -2.3825,-4.7747 h -2.05 c -0.6548,0 -1.226,0.0434 -1.7121,0.1343 -0.4816,0.0871 -0.8836,0.2214 -1.2065,0.3952 -0.3174,0.174 -0.551,0.3796 -0.7047,0.6247 -0.1488,0.245 -0.2233,0.5256 -0.2233,0.8419 0,0.5415 0.2134,0.9723 0.6451,1.2924 0.432,0.3203 1.0327,0.4821 1.8119,0.4821 0.6254,0 1.211,-0.1264 1.747,-0.3832 0.5361,-0.2532 1.1021,-0.6443 1.6926,-1.1702 z" />
    </g>
  </g>
</svg>
